,SANGER_SAMPLE_ID,SUPPLIER_SAMPLE_NAME,PLATE,COMMON_NAME,CELL_NAME,AGE,SEX
1,5317STDY7838367,F_34+38+_A1,PL2_1511 A1,femur 34+38+ A1,X5317STDY7838367,20 pcw,male
2,5317STDY7838368,F_34+38+_A2,PL2_1511 A2,femur 34+38+ A2,X5317STDY7838368,20 pcw,male
3,5317STDY7838369,F_34+38+_A3,PL2_1511 A3,femur 34+38+ A3,X5317STDY7838369,20 pcw,male
4,5317STDY7838370,F_34+38+_A4,PL2_1511 A4,femur 34+38+ A4,X5317STDY7838370,20 pcw,male
5,5317STDY7838371,F_34+38+_A5,PL2_1511 A5,femur 34+38+ A5,X5317STDY7838371,20 pcw,male
6,5317STDY7838372,F_34+38+_A6,PL2_1511 A6,femur 34+38+ A6,X5317STDY7838372,20 pcw,male
7,5317STDY7838373,F_34+38+_A7,PL2_1511 A7,femur 34+38+ A7,X5317STDY7838373,20 pcw,male
8,5317STDY7838374,F_34+38+_A8,PL2_1511 A8,femur 34+38+ A8,X5317STDY7838374,20 pcw,male
9,5317STDY7838375,F_34+38+_A9,PL2_1511 A9,femur 34+38+ A9,X5317STDY7838375,20 pcw,male
10,5317STDY7838376,F_34+38+_A10,PL2_1511 A10,femur 34+38+ A10,X5317STDY7838376,20 pcw,male
11,5317STDY7838377,F_34+38+_A11,PL2_1511 A11,femur 34+38+ A11,X5317STDY7838377,20 pcw,male
12,5317STDY7838378,F_34+38+_A12,PL2_1511 A12,femur 34+38+ A12,X5317STDY7838378,20 pcw,male
13,5317STDY7838379,F_34+38+_B1,PL2_1511 B1,femur 34+38+ B1,X5317STDY7838379,20 pcw,male
14,5317STDY7838380,F_34+38+_B2,PL2_1511 B2,femur 34+38+ B2,X5317STDY7838380,20 pcw,male
15,5317STDY7838381,F_34+38+_B3,PL2_1511 B3,femur 34+38+ B3,X5317STDY7838381,20 pcw,male
16,5317STDY7838382,F_34+38+_B4,PL2_1511 B4,femur 34+38+ B4,X5317STDY7838382,20 pcw,male
17,5317STDY7838383,F_34+38+_B5,PL2_1511 B5,femur 34+38+ B5,X5317STDY7838383,20 pcw,male
18,5317STDY7838384,F_34+38+_B6,PL2_1511 B6,femur 34+38+ B6,X5317STDY7838384,20 pcw,male
19,5317STDY7838385,F_34+38+_B7,PL2_1511 B7,femur 34+38+ B7,X5317STDY7838385,20 pcw,male
20,5317STDY7838386,F_34+38+_B8,PL2_1511 B8,femur 34+38+ B8,X5317STDY7838386,20 pcw,male
21,5317STDY7838387,F_34+38+_B9,PL2_1511 B9,femur 34+38+ B9,X5317STDY7838387,20 pcw,male
22,5317STDY7838388,F_34+38+_B10,PL2_1511 B10,femur 34+38+ B10,X5317STDY7838388,20 pcw,male
23,5317STDY7838389,F_34+38+_B11,PL2_1511 B11,femur 34+38+ B11,X5317STDY7838389,20 pcw,male
24,5317STDY7838390,F_34+38+_B12,PL2_1511 B12,femur 34+38+ B12,X5317STDY7838390,20 pcw,male
25,5317STDY7838391,F_34+38+_C1,PL2_1511 C1,femur 34+38+ C1,X5317STDY7838391,20 pcw,male
26,5317STDY7838392,F_34+38+_C2,PL2_1511 C2,femur 34+38+ C2,X5317STDY7838392,20 pcw,male
27,5317STDY7838393,F_34+38+_C3,PL2_1511 C3,femur 34+38+ C3,X5317STDY7838393,20 pcw,male
28,5317STDY7838394,F_34+38+_C4,PL2_1511 C4,femur 34+38+ C4,X5317STDY7838394,20 pcw,male
29,5317STDY7838395,F_34+38+_C5,PL2_1511 C5,femur 34+38+ C5,X5317STDY7838395,20 pcw,male
30,5317STDY7838396,F_34+38+_C6,PL2_1511 C6,femur 34+38+ C6,X5317STDY7838396,20 pcw,male
31,5317STDY7838397,F_34+38+_C7,PL2_1511 C7,femur 34+38+ C7,X5317STDY7838397,20 pcw,male
32,5317STDY7838398,F_34+38+_C8,PL2_1511 C8,femur 34+38+ C8,X5317STDY7838398,20 pcw,male
33,5317STDY7838399,F_34+38+_C9,PL2_1511 C9,femur 34+38+ C9,X5317STDY7838399,20 pcw,male
34,5317STDY7838400,F_34+38+_C10,PL2_1511 C10,femur 34+38+ C10,X5317STDY7838400,20 pcw,male
35,5317STDY7838401,F_34+38+_C11,PL2_1511 C11,femur 34+38+ C11,X5317STDY7838401,20 pcw,male
36,5317STDY7838402,F_34+38+_C12,PL2_1511 C12,femur 34+38+ C12,X5317STDY7838402,20 pcw,male
37,5317STDY7838403,F_34+38+_D1,PL2_1511 D1,femur 34+38+ D1,X5317STDY7838403,20 pcw,male
38,5317STDY7838404,F_34+38+_D2,PL2_1511 D2,femur 34+38+ D2,X5317STDY7838404,20 pcw,male
39,5317STDY7838405,F_34+38+_D3,PL2_1511 D3,femur 34+38+ D3,X5317STDY7838405,20 pcw,male
40,5317STDY7838406,F_34+38+_D4,PL2_1511 D4,femur 34+38+ D4,X5317STDY7838406,20 pcw,male
41,5317STDY7838407,F_34+38+_D5,PL2_1511 D5,femur 34+38+ D5,X5317STDY7838407,20 pcw,male
42,5317STDY7838408,F_34+38+_D6,PL2_1511 D6,femur 34+38+ D6,X5317STDY7838408,20 pcw,male
43,5317STDY7838409,F_34+38+_D7,PL2_1511 D7,femur 34+38+ D7,X5317STDY7838409,20 pcw,male
44,5317STDY7838410,F_34+38+_D8,PL2_1511 D8,femur 34+38+ D8,X5317STDY7838410,20 pcw,male
45,5317STDY7838411,F_34+38+_D9,PL2_1511 D9,femur 34+38+ D9,X5317STDY7838411,20 pcw,male
46,5317STDY7838412,F_34+38+_D10,PL2_1511 D10,femur 34+38+ D10,X5317STDY7838412,20 pcw,male
47,5317STDY7838413,F_34+38-_E1,PL2_1511 E1,femur 34+38- E1,X5317STDY7838413,20 pcw,male
48,5317STDY7838414,F_34+38-_E2,PL2_1511 E2,femur 34+38- E2,X5317STDY7838414,20 pcw,male
49,5317STDY7838415,F_34+38-_E3,PL2_1511 E3,femur 34+38- E3,X5317STDY7838415,20 pcw,male
50,5317STDY7838416,F_34+38-_E4,PL2_1511 E4,femur 34+38- E4,X5317STDY7838416,20 pcw,male
51,5317STDY7838417,F_34+38-_E5,PL2_1511 E5,femur 34+38- E5,X5317STDY7838417,20 pcw,male
52,5317STDY7838418,F_34+38-_E6,PL2_1511 E6,femur 34+38- E6,X5317STDY7838418,20 pcw,male
53,5317STDY7838419,F_34+38-_E7,PL2_1511 E7,femur 34+38- E7,X5317STDY7838419,20 pcw,male
54,5317STDY7838420,F_34+38-_E8,PL2_1511 E8,femur 34+38- E8,X5317STDY7838420,20 pcw,male
55,5317STDY7838421,F_34+38-_E9,PL2_1511 E9,femur 34+38- E9,X5317STDY7838421,20 pcw,male
56,5317STDY7838422,F_34+38-_E10,PL2_1511 E10,femur 34+38- E10,X5317STDY7838422,20 pcw,male
57,5317STDY7838423,F_34+38-_E11,PL2_1511 E11,femur 34+38- E11,X5317STDY7838423,20 pcw,male
58,5317STDY7838424,F_34+38-_E12,PL2_1511 E12,femur 34+38- E12,X5317STDY7838424,20 pcw,male
59,5317STDY7838425,F_34+38-_F1,PL2_1511 F1,femur 34+38- F1,X5317STDY7838425,20 pcw,male
60,5317STDY7838426,F_34+38-_F2,PL2_1511 F2,femur 34+38- F2,X5317STDY7838426,20 pcw,male
61,5317STDY7838427,F_34+38-_F3,PL2_1511 F3,femur 34+38- F3,X5317STDY7838427,20 pcw,male
62,5317STDY7838428,F_34+38-_F4,PL2_1511 F4,femur 34+38- F4,X5317STDY7838428,20 pcw,male
63,5317STDY7838429,F_34+38-_F5,PL2_1511 F5,femur 34+38- F5,X5317STDY7838429,20 pcw,male
64,5317STDY7838430,F_34+38-_F6,PL2_1511 F6,femur 34+38- F6,X5317STDY7838430,20 pcw,male
65,5317STDY7838431,F_34+38-_F7,PL2_1511 F7,femur 34+38- F7,X5317STDY7838431,20 pcw,male
66,5317STDY7838432,F_34+38-_F8,PL2_1511 F8,femur 34+38- F8,X5317STDY7838432,20 pcw,male
67,5317STDY7838433,F_34+38-_F9,PL2_1511 F9,femur 34+38- F9,X5317STDY7838433,20 pcw,male
68,5317STDY7838434,F_34+38-_F10,PL2_1511 F10,femur 34+38- F10,X5317STDY7838434,20 pcw,male
69,5317STDY7838435,F_34+38-_F11,PL2_1511 F11,femur 34+38- F11,X5317STDY7838435,20 pcw,male
70,5317STDY7838436,F_34+38-_F12,PL2_1511 F12,femur 34+38- F12,X5317STDY7838436,20 pcw,male
71,5317STDY7838437,F_34+38-_G1,PL2_1511 G1,femur 34+38- G1,X5317STDY7838437,20 pcw,male
72,5317STDY7838438,F_34+38-_G2,PL2_1511 G2,femur 34+38- G2,X5317STDY7838438,20 pcw,male
73,5317STDY7838439,F_34+38-_G3,PL2_1511 G3,femur 34+38- G3,X5317STDY7838439,20 pcw,male
74,5317STDY7838440,F_34+38-_G4,PL2_1511 G4,femur 34+38- G4,X5317STDY7838440,20 pcw,male
75,5317STDY7838441,F_34+38-_G5,PL2_1511 G5,femur 34+38- G5,X5317STDY7838441,20 pcw,male
76,5317STDY7838442,F_34+38-_G6,PL2_1511 G6,femur 34+38- G6,X5317STDY7838442,20 pcw,male
77,5317STDY7838443,F_34+38-_G7,PL2_1511 G7,femur 34+38- G7,X5317STDY7838443,20 pcw,male
78,5317STDY7838444,F_34+38-_G8,PL2_1511 G8,femur 34+38- G8,X5317STDY7838444,20 pcw,male
79,5317STDY7838445,F_34+38-_G9,PL2_1511 G9,femur 34+38- G9,X5317STDY7838445,20 pcw,male
80,5317STDY7838446,F_34+38-_G10,PL2_1511 G10,femur 34+38- G10,X5317STDY7838446,20 pcw,male
81,5317STDY7838447,F_34+38-_G11,PL2_1511 G11,femur 34+38- G11,X5317STDY7838447,20 pcw,male
82,5317STDY7838448,F_34+38-_G12,PL2_1511 G12,femur 34+38- G12,X5317STDY7838448,20 pcw,male
83,5317STDY7838449,F_34+38-_H1,PL2_1511 H1,femur 34+38- H1,X5317STDY7838449,20 pcw,male
84,5317STDY7838450,F_34+38-_H2,PL2_1511 H2,femur 34+38- H2,X5317STDY7838450,20 pcw,male
85,5317STDY7838451,F_34+38-_H3,PL2_1511 H3,femur 34+38- H3,X5317STDY7838451,20 pcw,male
86,5317STDY7838452,F_34+38-_H4,PL2_1511 H4,femur 34+38- H4,X5317STDY7838452,20 pcw,male
87,5317STDY7838453,F_34+38-_H5,PL2_1511 H5,femur 34+38- H5,X5317STDY7838453,20 pcw,male
88,5317STDY7838454,F_34+38-_H6,PL2_1511 H6,femur 34+38- H6,X5317STDY7838454,20 pcw,male
89,5317STDY7838455,F_34+38-_H7,PL2_1511 H7,femur 34+38- H7,X5317STDY7838455,20 pcw,male
90,5317STDY7838456,F_34+38-_H8,PL2_1511 H8,femur 34+38- H8,X5317STDY7838456,20 pcw,male
91,5317STDY7838457,F_34+38-_H9,PL2_1511 H9,femur 34+38- H9,X5317STDY7838457,20 pcw,male
92,5317STDY7838458,F_34+38-_H10,PL2_1511 H10,femur 34+38- H10,X5317STDY7838458,20 pcw,male
93,5317STDY7838459,F_CMP_A1,PL4_1511 A1,femur CMP A1,X5317STDY7838459,20 pcw,male
94,5317STDY7838460,F_CMP_A2,PL4_1511 A2,femur CMP A2,X5317STDY7838460,20 pcw,male
95,5317STDY7838461,F_CMP_A3,PL4_1511 A3,femur CMP A3,X5317STDY7838461,20 pcw,male
96,5317STDY7838462,F_CMP_A4,PL4_1511 A4,femur CMP A4,X5317STDY7838462,20 pcw,male
97,5317STDY7838463,F_CMP_A5,PL4_1511 A5,femur CMP A5,X5317STDY7838463,20 pcw,male
98,5317STDY7838464,F_CMP_A6,PL4_1511 A6,femur CMP A6,X5317STDY7838464,20 pcw,male
99,5317STDY7838465,F_CMP_A7,PL4_1511 A7,femur CMP A7,X5317STDY7838465,20 pcw,male
100,5317STDY7838466,F_CMP_A8,PL4_1511 A8,femur CMP A8,X5317STDY7838466,20 pcw,male
101,5317STDY7838467,F_CMP_A9,PL4_1511 A9,femur CMP A9,X5317STDY7838467,20 pcw,male
102,5317STDY7838468,F_CMP_A10,PL4_1511 A10,femur CMP A10,X5317STDY7838468,20 pcw,male
103,5317STDY7838469,F_CMP_A11,PL4_1511 A11,femur CMP A11,X5317STDY7838469,20 pcw,male
104,5317STDY7838470,F_CMP_A12,PL4_1511 A12,femur CMP A12,X5317STDY7838470,20 pcw,male
105,5317STDY7838471,F_CMP_B1,PL4_1511 B1,femur CMP B1,X5317STDY7838471,20 pcw,male
106,5317STDY7838472,F_CMP_B2,PL4_1511 B2,femur CMP B2,X5317STDY7838472,20 pcw,male
107,5317STDY7838473,F_CMP_B3,PL4_1511 B3,femur CMP B3,X5317STDY7838473,20 pcw,male
108,5317STDY7838474,F_CMP_B4,PL4_1511 B4,femur CMP B4,X5317STDY7838474,20 pcw,male
109,5317STDY7838475,F_CMP_B5,PL4_1511 B5,femur CMP B5,X5317STDY7838475,20 pcw,male
110,5317STDY7838476,F_CMP_B6,PL4_1511 B6,femur CMP B6,X5317STDY7838476,20 pcw,male
111,5317STDY7838477,F_CMP_B7,PL4_1511 B7,femur CMP B7,X5317STDY7838477,20 pcw,male
112,5317STDY7838478,F_CMP_B8,PL4_1511 B8,femur CMP B8,X5317STDY7838478,20 pcw,male
113,5317STDY7838479,F_CMP_B9,PL4_1511 B9,femur CMP B9,X5317STDY7838479,20 pcw,male
114,5317STDY7838480,F_CMP_B10,PL4_1511 B10,femur CMP B10,X5317STDY7838480,20 pcw,male
115,5317STDY7838481,F_CMP_B11,PL4_1511 B11,femur CMP B11,X5317STDY7838481,20 pcw,male
116,5317STDY7838482,F_CMP_B12,PL4_1511 B12,femur CMP B12,X5317STDY7838482,20 pcw,male
117,5317STDY7838483,F_CMP_C1,PL4_1511 C1,femur CMP C1,X5317STDY7838483,20 pcw,male
118,5317STDY7838484,F_CMP_C2,PL4_1511 C2,femur CMP C2,X5317STDY7838484,20 pcw,male
119,5317STDY7838485,F_CMP_C3,PL4_1511 C3,femur CMP C3,X5317STDY7838485,20 pcw,male
120,5317STDY7838486,F_CMP_C4,PL4_1511 C4,femur CMP C4,X5317STDY7838486,20 pcw,male
121,5317STDY7838487,F_CMP_C5,PL4_1511 C5,femur CMP C5,X5317STDY7838487,20 pcw,male
122,5317STDY7838488,F_CMP_C6,PL4_1511 C6,femur CMP C6,X5317STDY7838488,20 pcw,male
123,5317STDY7838489,F_CMP_C7,PL4_1511 C7,femur CMP C7,X5317STDY7838489,20 pcw,male
124,5317STDY7838490,F_CMP_C8,PL4_1511 C8,femur CMP C8,X5317STDY7838490,20 pcw,male
125,5317STDY7838491,F_CMP_C9,PL4_1511 C9,femur CMP C9,X5317STDY7838491,20 pcw,male
126,5317STDY7838492,F_CMP_C10,PL4_1511 C10,femur CMP C10,X5317STDY7838492,20 pcw,male
127,5317STDY7838493,F_CMP_C11,PL4_1511 C11,femur CMP C11,X5317STDY7838493,20 pcw,male
128,5317STDY7838494,F_CMP_C12,PL4_1511 C12,femur CMP C12,X5317STDY7838494,20 pcw,male
129,5317STDY7838495,F_MEP_D1,PL4_1511 D1,femur MEP D1,X5317STDY7838495,20 pcw,male
130,5317STDY7838496,F_MEP_D2,PL4_1511 D2,femur MEP D2,X5317STDY7838496,20 pcw,male
131,5317STDY7838497,F_MEP_D3,PL4_1511 D3,femur MEP D3,X5317STDY7838497,20 pcw,male
132,5317STDY7838498,F_MEP_D4,PL4_1511 D4,femur MEP D4,X5317STDY7838498,20 pcw,male
133,5317STDY7838499,F_MEP_D5,PL4_1511 D5,femur MEP D5,X5317STDY7838499,20 pcw,male
134,5317STDY7838500,F_MEP_D6,PL4_1511 D6,femur MEP D6,X5317STDY7838500,20 pcw,male
135,5317STDY7838501,F_MEP_D7,PL4_1511 D7,femur MEP D7,X5317STDY7838501,20 pcw,male
136,5317STDY7838502,F_MEP_D8,PL4_1511 D8,femur MEP D8,X5317STDY7838502,20 pcw,male
137,5317STDY7838503,F_MEP_D9,PL4_1511 D9,femur MEP D9,X5317STDY7838503,20 pcw,male
138,5317STDY7838504,F_MEP_D10,PL4_1511 D10,femur MEP D10,X5317STDY7838504,20 pcw,male
139,5317STDY7838505,F_MEP_D11,PL4_1511 D11,femur MEP D11,X5317STDY7838505,20 pcw,male
140,5317STDY7838506,F_MEP_D12,PL4_1511 D12,femur MEP D12,X5317STDY7838506,20 pcw,male
141,5317STDY7838507,F_MEP_E1,PL4_1511 E1,femur MEP E1,X5317STDY7838507,20 pcw,male
142,5317STDY7838508,F_MEP_E2,PL4_1511 E2,femur MEP E2,X5317STDY7838508,20 pcw,male
143,5317STDY7838509,F_MEP_E3,PL4_1511 E3,femur MEP E3,X5317STDY7838509,20 pcw,male
144,5317STDY7838510,F_MEP_E4,PL4_1511 E4,femur MEP E4,X5317STDY7838510,20 pcw,male
145,5317STDY7838511,F_MEP_E5,PL4_1511 E5,femur MEP E5,X5317STDY7838511,20 pcw,male
146,5317STDY7838512,F_MEP_E6,PL4_1511 E6,femur MEP E6,X5317STDY7838512,20 pcw,male
147,5317STDY7838513,F_MEP_E7,PL4_1511 E7,femur MEP E7,X5317STDY7838513,20 pcw,male
148,5317STDY7838514,F_MEP_E8,PL4_1511 E8,femur MEP E8,X5317STDY7838514,20 pcw,male
149,5317STDY7838515,F_MEP_E9,PL4_1511 E9,femur MEP E9,X5317STDY7838515,20 pcw,male
150,5317STDY7838516,F_MEP_E10,PL4_1511 E10,femur MEP E10,X5317STDY7838516,20 pcw,male
151,5317STDY7838517,F_MEP_E11,PL4_1511 E11,femur MEP E11,X5317STDY7838517,20 pcw,male
152,5317STDY7838518,F_MEP_E12,PL4_1511 E12,femur MEP E12,X5317STDY7838518,20 pcw,male
153,5317STDY7838519,F_MEP_F1,PL4_1511 F1,femur MEP F1,X5317STDY7838519,20 pcw,male
154,5317STDY7838520,F_MEP_F2,PL4_1511 F2,femur MEP F2,X5317STDY7838520,20 pcw,male
155,5317STDY7838521,F_MEP_F3,PL4_1511 F3,femur MEP F3,X5317STDY7838521,20 pcw,male
156,5317STDY7838522,F_MEP_F4,PL4_1511 F4,femur MEP F4,X5317STDY7838522,20 pcw,male
157,5317STDY7838523,F_MEP_F5,PL4_1511 F5,femur MEP F5,X5317STDY7838523,20 pcw,male
158,5317STDY7838524,F_MEP_F6,PL4_1511 F6,femur MEP F6,X5317STDY7838524,20 pcw,male
159,5317STDY7838525,F_MEP_F7,PL4_1511 F7,femur MEP F7,X5317STDY7838525,20 pcw,male
160,5317STDY7838526,F_MEP_F8,PL4_1511 F8,femur MEP F8,X5317STDY7838526,20 pcw,male
161,5317STDY7838527,F_MEP_F9,PL4_1511 F9,femur MEP F9,X5317STDY7838527,20 pcw,male
162,5317STDY7838528,F_MEP_F10,PL4_1511 F10,femur MEP F10,X5317STDY7838528,20 pcw,male
163,5317STDY7838529,F_MEP_F11,PL4_1511 F11,femur MEP F11,X5317STDY7838529,20 pcw,male
164,5317STDY7838530,F_MEP_F12,PL4_1511 F12,femur MEP F12,X5317STDY7838530,20 pcw,male
165,5317STDY7838531,F_GMP_G1,PL4_1511 G1,femur GMP G1,X5317STDY7838531,20 pcw,male
166,5317STDY7838532,F_GMP_G2,PL4_1511 G2,femur GMP G2,X5317STDY7838532,20 pcw,male
167,5317STDY7838533,F_GMP_G3,PL4_1511 G3,femur GMP G3,X5317STDY7838533,20 pcw,male
168,5317STDY7838534,F_GMP_G4,PL4_1511 G4,femur GMP G4,X5317STDY7838534,20 pcw,male
169,5317STDY7838535,F_GMP_G5,PL4_1511 G5,femur GMP G5,X5317STDY7838535,20 pcw,male
170,5317STDY7838536,F_GMP_G6,PL4_1511 G6,femur GMP G6,X5317STDY7838536,20 pcw,male
171,5317STDY7838537,F_GMP_G7,PL4_1511 G7,femur GMP G7,X5317STDY7838537,20 pcw,male
172,5317STDY7838538,F_GMP_G8,PL4_1511 G8,femur GMP G8,X5317STDY7838538,20 pcw,male
173,5317STDY7838539,F_GMP_G9,PL4_1511 G9,femur GMP G9,X5317STDY7838539,20 pcw,male
174,5317STDY7838540,F_GMP_G10,PL4_1511 G10,femur GMP G10,X5317STDY7838540,20 pcw,male
175,5317STDY7838541,F_GMP_G11,PL4_1511 G11,femur GMP G11,X5317STDY7838541,20 pcw,male
176,5317STDY7838542,F_GMP_G12,PL4_1511 G12,femur GMP G12,X5317STDY7838542,20 pcw,male
177,5317STDY7838543,F_GMP_H1,PL4_1511 H1,femur GMP H1,X5317STDY7838543,20 pcw,male
178,5317STDY7838544,F_GMP_H2,PL4_1511 H2,femur GMP H2,X5317STDY7838544,20 pcw,male
179,5317STDY7838545,F_GMP_H3,PL4_1511 H3,femur GMP H3,X5317STDY7838545,20 pcw,male
180,5317STDY7838546,F_GMP_H4,PL4_1511 H4,femur GMP H4,X5317STDY7838546,20 pcw,male
181,5317STDY7838547,F_GMP_H5,PL4_1511 H5,femur GMP H5,X5317STDY7838547,20 pcw,male
182,5317STDY7838548,F_GMP_H6,PL4_1511 H6,femur GMP H6,X5317STDY7838548,20 pcw,male
183,5317STDY7838549,F_GMP_H7,PL4_1511 H7,femur GMP H7,X5317STDY7838549,20 pcw,male
184,5317STDY7838550,F_GMP_H8,PL4_1511 H8,femur GMP H8,X5317STDY7838550,20 pcw,male
185,5317STDY7838551,F_GMP_H9,PL4_1511 H9,femur GMP H9,X5317STDY7838551,20 pcw,male
186,5317STDY7838552,F_GMP_H10,PL4_1511 H10,femur GMP H10,X5317STDY7838552,20 pcw,male
187,5317STDY7838553,F_proB_A1,PL2_1601 A1,femur proB A1,X5317STDY7838553,20 pcw,female
188,5317STDY7838554,F_proB_A2,PL2_1601 A2,femur proB A2,X5317STDY7838554,20 pcw,female
189,5317STDY7838555,F_proB_A3,PL2_1601 A3,femur proB A3,X5317STDY7838555,20 pcw,female
190,5317STDY7838556,F_proB_A4,PL2_1601 A4,femur proB A4,X5317STDY7838556,20 pcw,female
191,5317STDY7838557,F_proB_A5,PL2_1601 A5,femur proB A5,X5317STDY7838557,20 pcw,female
192,5317STDY7838558,F_proB_A6,PL2_1601 A6,femur proB A6,X5317STDY7838558,20 pcw,female
193,5317STDY7838559,F_proB_A7,PL2_1601 A7,femur proB A7,X5317STDY7838559,20 pcw,female
194,5317STDY7838560,F_proB_A8,PL2_1601 A8,femur proB A8,X5317STDY7838560,20 pcw,female
195,5317STDY7838561,F_proB_A9,PL2_1601 A9,femur proB A9,X5317STDY7838561,20 pcw,female
196,5317STDY7838562,F_proB_A10,PL2_1601 A10,femur proB A10,X5317STDY7838562,20 pcw,female
197,5317STDY7838563,F_proB_A11,PL2_1601 A11,femur proB A11,X5317STDY7838563,20 pcw,female
198,5317STDY7838564,F_proB_A12,PL2_1601 A12,femur proB A12,X5317STDY7838564,20 pcw,female
199,5317STDY7838565,F_proB_B1,PL2_1601 B1,femur proB B1,X5317STDY7838565,20 pcw,female
200,5317STDY7838566,F_proB_B2,PL2_1601 B2,femur proB B2,X5317STDY7838566,20 pcw,female
201,5317STDY7838567,F_proB_B3,PL2_1601 B3,femur proB B3,X5317STDY7838567,20 pcw,female
202,5317STDY7838568,F_proB_B4,PL2_1601 B4,femur proB B4,X5317STDY7838568,20 pcw,female
203,5317STDY7838569,F_proB_B5,PL2_1601 B5,femur proB B5,X5317STDY7838569,20 pcw,female
204,5317STDY7838570,F_proB_B6,PL2_1601 B6,femur proB B6,X5317STDY7838570,20 pcw,female
205,5317STDY7838571,F_proB_B7,PL2_1601 B7,femur proB B7,X5317STDY7838571,20 pcw,female
206,5317STDY7838572,F_proB_B8,PL2_1601 B8,femur proB B8,X5317STDY7838572,20 pcw,female
207,5317STDY7838573,F_proB_B9,PL2_1601 B9,femur proB B9,X5317STDY7838573,20 pcw,female
208,5317STDY7838574,F_proB_B10,PL2_1601 B10,femur proB B10,X5317STDY7838574,20 pcw,female
209,5317STDY7838575,F_proB_B11,PL2_1601 B11,femur proB B11,X5317STDY7838575,20 pcw,female
210,5317STDY7838576,F_proB_B12,PL2_1601 B12,femur proB B12,X5317STDY7838576,20 pcw,female
211,5317STDY7838577,F_proB_C1,PL2_1601 C1,femur proB C1,X5317STDY7838577,20 pcw,female
212,5317STDY7838578,F_proB_C2,PL2_1601 C2,femur proB C2,X5317STDY7838578,20 pcw,female
213,5317STDY7838579,F_proB_C3,PL2_1601 C3,femur proB C3,X5317STDY7838579,20 pcw,female
214,5317STDY7838580,F_proB_C4,PL2_1601 C4,femur proB C4,X5317STDY7838580,20 pcw,female
215,5317STDY7838581,F_proB_C5,PL2_1601 C5,femur proB C5,X5317STDY7838581,20 pcw,female
216,5317STDY7838582,F_proB_C6,PL2_1601 C6,femur proB C6,X5317STDY7838582,20 pcw,female
217,5317STDY7838583,F_proB_C7,PL2_1601 C7,femur proB C7,X5317STDY7838583,20 pcw,female
218,5317STDY7838584,F_proB_C8,PL2_1601 C8,femur proB C8,X5317STDY7838584,20 pcw,female
219,5317STDY7838585,F_proB_C9,PL2_1601 C9,femur proB C9,X5317STDY7838585,20 pcw,female
220,5317STDY7838586,F_proB_C10,PL2_1601 C10,femur proB C10,X5317STDY7838586,20 pcw,female
221,5317STDY7838587,F_preB_D1,PL2_1601 D1,femur preB D1,X5317STDY7838587,20 pcw,female
222,5317STDY7838588,F_preB_D2,PL2_1601 D2,femur preB D2,X5317STDY7838588,20 pcw,female
223,5317STDY7838589,F_preB_D3,PL2_1601 D3,femur preB D3,X5317STDY7838589,20 pcw,female
224,5317STDY7838590,F_preB_D4,PL2_1601 D4,femur preB D4,X5317STDY7838590,20 pcw,female
225,5317STDY7838591,F_preB_D5,PL2_1601 D5,femur preB D5,X5317STDY7838591,20 pcw,female
226,5317STDY7838592,F_preB_D6,PL2_1601 D6,femur preB D6,X5317STDY7838592,20 pcw,female
227,5317STDY7838593,F_preB_D7,PL2_1601 D7,femur preB D7,X5317STDY7838593,20 pcw,female
228,5317STDY7838594,F_preB_D8,PL2_1601 D8,femur preB D8,X5317STDY7838594,20 pcw,female
229,5317STDY7838595,F_preB_D9,PL2_1601 D9,femur preB D9,X5317STDY7838595,20 pcw,female
230,5317STDY7838596,F_preB_D10,PL2_1601 D10,femur preB D10,X5317STDY7838596,20 pcw,female
231,5317STDY7838597,F_preB_D11,PL2_1601 D11,femur preB D11,X5317STDY7838597,20 pcw,female
232,5317STDY7838598,F_preB_D12,PL2_1601 D12,femur preB D12,X5317STDY7838598,20 pcw,female
233,5317STDY7838599,F_preB_E1,PL2_1601 E1,femur preB E1,X5317STDY7838599,20 pcw,female
234,5317STDY7838600,F_preB_E2,PL2_1601 E2,femur preB E2,X5317STDY7838600,20 pcw,female
235,5317STDY7838601,F_preB_E3,PL2_1601 E3,femur preB E3,X5317STDY7838601,20 pcw,female
236,5317STDY7838602,F_preB_E4,PL2_1601 E4,femur preB E4,X5317STDY7838602,20 pcw,female
237,5317STDY7838603,F_preB_E5,PL2_1601 E5,femur preB E5,X5317STDY7838603,20 pcw,female
238,5317STDY7838604,F_preB_E6,PL2_1601 E6,femur preB E6,X5317STDY7838604,20 pcw,female
239,5317STDY7838605,F_preB_E7,PL2_1601 E7,femur preB E7,X5317STDY7838605,20 pcw,female
240,5317STDY7838606,F_preB_E8,PL2_1601 E8,femur preB E8,X5317STDY7838606,20 pcw,female
241,5317STDY7838607,F_preB_E9,PL2_1601 E9,femur preB E9,X5317STDY7838607,20 pcw,female
242,5317STDY7838608,F_preB_E10,PL2_1601 E10,femur preB E10,X5317STDY7838608,20 pcw,female
243,5317STDY7838609,F_preB_E11,PL2_1601 E11,femur preB E11,X5317STDY7838609,20 pcw,female
244,5317STDY7838610,F_preB_E12,PL2_1601 E12,femur preB E12,X5317STDY7838610,20 pcw,female
245,5317STDY7838611,F_preB_F1,PL2_1601 F1,femur preB F1,X5317STDY7838611,20 pcw,female
246,5317STDY7838612,F_preB_F2,PL2_1601 F2,femur preB F2,X5317STDY7838612,20 pcw,female
247,5317STDY7838613,F_preB_F3,PL2_1601 F3,femur preB F3,X5317STDY7838613,20 pcw,female
248,5317STDY7838614,F_preB_F4,PL2_1601 F4,femur preB F4,X5317STDY7838614,20 pcw,female
249,5317STDY7838615,F_preB_F5,PL2_1601 F5,femur preB F5,X5317STDY7838615,20 pcw,female
250,5317STDY7838616,F_preB_F6,PL2_1601 F6,femur preB F6,X5317STDY7838616,20 pcw,female
251,5317STDY7838617,F_preB_F7,PL2_1601 F7,femur preB F7,X5317STDY7838617,20 pcw,female
252,5317STDY7838618,F_preB_F8,PL2_1601 F8,femur preB F8,X5317STDY7838618,20 pcw,female
253,5317STDY7838619,F_preB_F9,PL2_1601 F9,femur preB F9,X5317STDY7838619,20 pcw,female
254,5317STDY7838620,F_preB_F10,PL2_1601 F10,femur preB F10,X5317STDY7838620,20 pcw,female
255,5317STDY7838621,F_preB_F11,PL2_1601 F11,femur preB F11,X5317STDY7838621,20 pcw,female
256,5317STDY7838622,F_preB_F12,PL2_1601 F12,femur preB F12,X5317STDY7838622,20 pcw,female
257,5317STDY7838623,F_matB_G1,PL2_1601 G1,femur matB G1,X5317STDY7838623,20 pcw,female
258,5317STDY7838624,F_matB_G2,PL2_1601 G2,femur matB G2,X5317STDY7838624,20 pcw,female
259,5317STDY7838625,F_matB_G3,PL2_1601 G3,femur matB G3,X5317STDY7838625,20 pcw,female
260,5317STDY7838626,F_matB_G4,PL2_1601 G4,femur matB G4,X5317STDY7838626,20 pcw,female
261,5317STDY7838627,F_matB_G5,PL2_1601 G5,femur matB G5,X5317STDY7838627,20 pcw,female
262,5317STDY7838628,F_matB_G6,PL2_1601 G6,femur matB G6,X5317STDY7838628,20 pcw,female
263,5317STDY7838629,F_matB_G7,PL2_1601 G7,femur matB G7,X5317STDY7838629,20 pcw,female
264,5317STDY7838630,F_matB_G8,PL2_1601 G8,femur matB G8,X5317STDY7838630,20 pcw,female
265,5317STDY7838631,F_matB_G9,PL2_1601 G9,femur matB G9,X5317STDY7838631,20 pcw,female
266,5317STDY7838632,F_matB_G10,PL2_1601 G10,femur matB G10,X5317STDY7838632,20 pcw,female
267,5317STDY7838633,F_matB_G11,PL2_1601 G11,femur matB G11,X5317STDY7838633,20 pcw,female
268,5317STDY7838634,F_matB_G12,PL2_1601 G12,femur matB G12,X5317STDY7838634,20 pcw,female
269,5317STDY7838635,F_matB_H1,PL2_1601 H1,femur matB H1,X5317STDY7838635,20 pcw,female
270,5317STDY7838636,F_matB_H2,PL2_1601 H2,femur matB H2,X5317STDY7838636,20 pcw,female
271,5317STDY7838637,F_matB_H3,PL2_1601 H3,femur matB H3,X5317STDY7838637,20 pcw,female
272,5317STDY7838638,F_matB_H4,PL2_1601 H4,femur matB H4,X5317STDY7838638,20 pcw,female
273,5317STDY7838639,F_matB_H5,PL2_1601 H5,femur matB H5,X5317STDY7838639,20 pcw,female
274,5317STDY7838640,F_matB_H6,PL2_1601 H6,femur matB H6,X5317STDY7838640,20 pcw,female
275,5317STDY7838641,F_matB_H7,PL2_1601 H7,femur matB H7,X5317STDY7838641,20 pcw,female
276,5317STDY7838642,F_matB_H8,PL2_1601 H8,femur matB H8,X5317STDY7838642,20 pcw,female
277,5317STDY7838643,F_matB_H9,PL2_1601 H9,femur matB H9,X5317STDY7838643,20 pcw,female
278,5317STDY7838644,F_matB_H10,PL2_1601 H10,femur matB H10,X5317STDY7838644,20 pcw,female
279,5317STDY7838645,L_34+38+_A1,PL1_1511 A1,liver 34+38+ A1,X5317STDY7838645,20 pcw,male
280,5317STDY7838646,L_34+38+_A2,PL1_1511 A2,liver 34+38+ A2,X5317STDY7838646,20 pcw,male
281,5317STDY7838647,L_34+38+_A3,PL1_1511 A3,liver 34+38+ A3,X5317STDY7838647,20 pcw,male
282,5317STDY7838648,L_34+38+_A4,PL1_1511 A4,liver 34+38+ A4,X5317STDY7838648,20 pcw,male
283,5317STDY7838649,L_34+38+_A5,PL1_1511 A5,liver 34+38+ A5,X5317STDY7838649,20 pcw,male
284,5317STDY7838650,L_34+38+_A6,PL1_1511 A6,liver 34+38+ A6,X5317STDY7838650,20 pcw,male
285,5317STDY7838651,L_34+38+_A7,PL1_1511 A7,liver 34+38+ A7,X5317STDY7838651,20 pcw,male
286,5317STDY7838652,L_34+38+_A8,PL1_1511 A8,liver 34+38+ A8,X5317STDY7838652,20 pcw,male
287,5317STDY7838653,L_34+38+_A9,PL1_1511 A9,liver 34+38+ A9,X5317STDY7838653,20 pcw,male
288,5317STDY7838654,L_34+38+_A10,PL1_1511 A10,liver 34+38+ A10,X5317STDY7838654,20 pcw,male
289,5317STDY7838655,L_34+38+_A11,PL1_1511 A11,liver 34+38+ A11,X5317STDY7838655,20 pcw,male
290,5317STDY7838656,L_34+38+_A12,PL1_1511 A12,liver 34+38+ A12,X5317STDY7838656,20 pcw,male
291,5317STDY7838657,L_34+38+_B1,PL1_1511 B1,liver 34+38+ B1,X5317STDY7838657,20 pcw,male
292,5317STDY7838658,L_34+38+_B2,PL1_1511 B2,liver 34+38+ B2,X5317STDY7838658,20 pcw,male
293,5317STDY7838659,L_34+38+_B3,PL1_1511 B3,liver 34+38+ B3,X5317STDY7838659,20 pcw,male
294,5317STDY7838660,L_34+38+_B4,PL1_1511 B4,liver 34+38+ B4,X5317STDY7838660,20 pcw,male
295,5317STDY7838661,L_34+38+_B5,PL1_1511 B5,liver 34+38+ B5,X5317STDY7838661,20 pcw,male
296,5317STDY7838662,L_34+38+_B6,PL1_1511 B6,liver 34+38+ B6,X5317STDY7838662,20 pcw,male
297,5317STDY7838663,L_34+38+_B7,PL1_1511 B7,liver 34+38+ B7,X5317STDY7838663,20 pcw,male
298,5317STDY7838664,L_34+38+_B8,PL1_1511 B8,liver 34+38+ B8,X5317STDY7838664,20 pcw,male
299,5317STDY7838665,L_34+38+_B9,PL1_1511 B9,liver 34+38+ B9,X5317STDY7838665,20 pcw,male
300,5317STDY7838666,L_34+38+_B10,PL1_1511 B10,liver 34+38+ B10,X5317STDY7838666,20 pcw,male
301,5317STDY7838667,L_34+38+_B11,PL1_1511 B11,liver 34+38+ B11,X5317STDY7838667,20 pcw,male
302,5317STDY7838668,L_34+38+_B12,PL1_1511 B12,liver 34+38+ B12,X5317STDY7838668,20 pcw,male
303,5317STDY7838669,L_34+38+_C1,PL1_1511 C1,liver 34+38+ C1,X5317STDY7838669,20 pcw,male
304,5317STDY7838670,L_34+38+_C2,PL1_1511 C2,liver 34+38+ C2,X5317STDY7838670,20 pcw,male
305,5317STDY7838671,L_34+38+_C3,PL1_1511 C3,liver 34+38+ C3,X5317STDY7838671,20 pcw,male
306,5317STDY7838672,L_34+38+_C4,PL1_1511 C4,liver 34+38+ C4,X5317STDY7838672,20 pcw,male
307,5317STDY7838673,L_34+38+_C5,PL1_1511 C5,liver 34+38+ C5,X5317STDY7838673,20 pcw,male
308,5317STDY7838674,L_34+38+_C6,PL1_1511 C6,liver 34+38+ C6,X5317STDY7838674,20 pcw,male
309,5317STDY7838675,L_34+38+_C7,PL1_1511 C7,liver 34+38+ C7,X5317STDY7838675,20 pcw,male
310,5317STDY7838676,L_34+38+_C8,PL1_1511 C8,liver 34+38+ C8,X5317STDY7838676,20 pcw,male
311,5317STDY7838677,L_34+38+_C9,PL1_1511 C9,liver 34+38+ C9,X5317STDY7838677,20 pcw,male
312,5317STDY7838678,L_34+38+_C10,PL1_1511 C10,liver 34+38+ C10,X5317STDY7838678,20 pcw,male
313,5317STDY7838679,L_34+38+_C11,PL1_1511 C11,liver 34+38+ C11,X5317STDY7838679,20 pcw,male
314,5317STDY7838680,L_34+38+_C12,PL1_1511 C12,liver 34+38+ C12,X5317STDY7838680,20 pcw,male
315,5317STDY7838681,L_34+38+_D1,PL1_1511 D1,liver 34+38+ D1,X5317STDY7838681,20 pcw,male
316,5317STDY7838682,L_34+38+_D2,PL1_1511 D2,liver 34+38+ D2,X5317STDY7838682,20 pcw,male
317,5317STDY7838683,L_34+38+_D3,PL1_1511 D3,liver 34+38+ D3,X5317STDY7838683,20 pcw,male
318,5317STDY7838684,L_34+38+_D4,PL1_1511 D4,liver 34+38+ D4,X5317STDY7838684,20 pcw,male
319,5317STDY7838685,L_34+38+_D5,PL1_1511 D5,liver 34+38+ D5,X5317STDY7838685,20 pcw,male
320,5317STDY7838686,L_34+38+_D6,PL1_1511 D6,liver 34+38+ D6,X5317STDY7838686,20 pcw,male
321,5317STDY7838687,L_34+38+_D7,PL1_1511 D7,liver 34+38+ D7,X5317STDY7838687,20 pcw,male
322,5317STDY7838688,L_34+38+_D8,PL1_1511 D8,liver 34+38+ D8,X5317STDY7838688,20 pcw,male
323,5317STDY7838689,L_34+38+_D9,PL1_1511 D9,liver 34+38+ D9,X5317STDY7838689,20 pcw,male
324,5317STDY7838690,L_34+38+_D10,PL1_1511 D10,liver 34+38+ D10,X5317STDY7838690,20 pcw,male
325,5317STDY7838691,L_34+38-_E1,PL1_1511 E1,liver 34+38- E1,X5317STDY7838691,20 pcw,male
326,5317STDY7838692,L_34+38-_E2,PL1_1511 E2,liver 34+38- E2,X5317STDY7838692,20 pcw,male
327,5317STDY7838693,L_34+38-_E3,PL1_1511 E3,liver 34+38- E3,X5317STDY7838693,20 pcw,male
328,5317STDY7838694,L_34+38-_E4,PL1_1511 E4,liver 34+38- E4,X5317STDY7838694,20 pcw,male
329,5317STDY7838695,L_34+38-_E5,PL1_1511 E5,liver 34+38- E5,X5317STDY7838695,20 pcw,male
330,5317STDY7838696,L_34+38-_E6,PL1_1511 E6,liver 34+38- E6,X5317STDY7838696,20 pcw,male
331,5317STDY7838697,L_34+38-_E7,PL1_1511 E7,liver 34+38- E7,X5317STDY7838697,20 pcw,male
332,5317STDY7838698,L_34+38-_E8,PL1_1511 E8,liver 34+38- E8,X5317STDY7838698,20 pcw,male
333,5317STDY7838699,L_34+38-_E9,PL1_1511 E9,liver 34+38- E9,X5317STDY7838699,20 pcw,male
334,5317STDY7838700,L_34+38-_E10,PL1_1511 E10,liver 34+38- E10,X5317STDY7838700,20 pcw,male
335,5317STDY7838701,L_34+38-_E11,PL1_1511 E11,liver 34+38- E11,X5317STDY7838701,20 pcw,male
336,5317STDY7838702,L_34+38-_E12,PL1_1511 E12,liver 34+38- E12,X5317STDY7838702,20 pcw,male
337,5317STDY7838703,L_34+38-_F1,PL1_1511 F1,liver 34+38- F1,X5317STDY7838703,20 pcw,male
338,5317STDY7838704,L_34+38-_F2,PL1_1511 F2,liver 34+38- F2,X5317STDY7838704,20 pcw,male
339,5317STDY7838705,L_34+38-_F3,PL1_1511 F3,liver 34+38- F3,X5317STDY7838705,20 pcw,male
340,5317STDY7838706,L_34+38-_F4,PL1_1511 F4,liver 34+38- F4,X5317STDY7838706,20 pcw,male
341,5317STDY7838707,L_34+38-_F5,PL1_1511 F5,liver 34+38- F5,X5317STDY7838707,20 pcw,male
342,5317STDY7838708,L_34+38-_F6,PL1_1511 F6,liver 34+38- F6,X5317STDY7838708,20 pcw,male
343,5317STDY7838709,L_34+38-_F7,PL1_1511 F7,liver 34+38- F7,X5317STDY7838709,20 pcw,male
344,5317STDY7838710,L_34+38-_F8,PL1_1511 F8,liver 34+38- F8,X5317STDY7838710,20 pcw,male
345,5317STDY7838711,L_34+38-_F9,PL1_1511 F9,liver 34+38- F9,X5317STDY7838711,20 pcw,male
346,5317STDY7838712,L_34+38-_F10,PL1_1511 F10,liver 34+38- F10,X5317STDY7838712,20 pcw,male
347,5317STDY7838713,L_34+38-_F11,PL1_1511 F11,liver 34+38- F11,X5317STDY7838713,20 pcw,male
348,5317STDY7838714,L_34+38-_F12,PL1_1511 F12,liver 34+38- F12,X5317STDY7838714,20 pcw,male
349,5317STDY7838715,L_34+38-_G1,PL1_1511 G1,liver 34+38- G1,X5317STDY7838715,20 pcw,male
350,5317STDY7838716,L_34+38-_G2,PL1_1511 G2,liver 34+38- G2,X5317STDY7838716,20 pcw,male
351,5317STDY7838717,L_34+38-_G3,PL1_1511 G3,liver 34+38- G3,X5317STDY7838717,20 pcw,male
352,5317STDY7838718,L_34+38-_G4,PL1_1511 G4,liver 34+38- G4,X5317STDY7838718,20 pcw,male
353,5317STDY7838719,L_34+38-_G5,PL1_1511 G5,liver 34+38- G5,X5317STDY7838719,20 pcw,male
354,5317STDY7838720,L_34+38-_G6,PL1_1511 G6,liver 34+38- G6,X5317STDY7838720,20 pcw,male
355,5317STDY7838721,L_34+38-_G7,PL1_1511 G7,liver 34+38- G7,X5317STDY7838721,20 pcw,male
356,5317STDY7838722,L_34+38-_G8,PL1_1511 G8,liver 34+38- G8,X5317STDY7838722,20 pcw,male
357,5317STDY7838723,L_34+38-_G9,PL1_1511 G9,liver 34+38- G9,X5317STDY7838723,20 pcw,male
358,5317STDY7838724,L_34+38-_G10,PL1_1511 G10,liver 34+38- G10,X5317STDY7838724,20 pcw,male
359,5317STDY7838725,L_34+38-_G11,PL1_1511 G11,liver 34+38- G11,X5317STDY7838725,20 pcw,male
360,5317STDY7838726,L_34+38-_G12,PL1_1511 G12,liver 34+38- G12,X5317STDY7838726,20 pcw,male
361,5317STDY7838727,L_34+38-_H1,PL1_1511 H1,liver 34+38- H1,X5317STDY7838727,20 pcw,male
362,5317STDY7838728,L_34+38-_H2,PL1_1511 H2,liver 34+38- H2,X5317STDY7838728,20 pcw,male
363,5317STDY7838729,L_34+38-_H3,PL1_1511 H3,liver 34+38- H3,X5317STDY7838729,20 pcw,male
364,5317STDY7838730,L_34+38-_H4,PL1_1511 H4,liver 34+38- H4,X5317STDY7838730,20 pcw,male
365,5317STDY7838731,L_34+38-_H5,PL1_1511 H5,liver 34+38- H5,X5317STDY7838731,20 pcw,male
366,5317STDY7838732,L_34+38-_H6,PL1_1511 H6,liver 34+38- H6,X5317STDY7838732,20 pcw,male
367,5317STDY7838733,L_34+38-_H7,PL1_1511 H7,liver 34+38- H7,X5317STDY7838733,20 pcw,male
368,5317STDY7838734,L_34+38-_H8,PL1_1511 H8,liver 34+38- H8,X5317STDY7838734,20 pcw,male
369,5317STDY7838735,L_34+38-_H9,PL1_1511 H9,liver 34+38- H9,X5317STDY7838735,20 pcw,male
370,5317STDY7838736,L_34+38-_H10,PL1_1511 H10,liver 34+38- H10,X5317STDY7838736,20 pcw,male
371,5317STDY7838737,L_CMP_A1,PL3_1511 A1,liver CMP A1,X5317STDY7838737,20 pcw,male
372,5317STDY7838738,L_CMP_A2,PL3_1511 A2,liver CMP A2,X5317STDY7838738,20 pcw,male
373,5317STDY7838739,L_CMP_A3,PL3_1511 A3,liver CMP A3,X5317STDY7838739,20 pcw,male
374,5317STDY7838740,L_CMP_A4,PL3_1511 A4,liver CMP A4,X5317STDY7838740,20 pcw,male
375,5317STDY7838741,L_CMP_A5,PL3_1511 A5,liver CMP A5,X5317STDY7838741,20 pcw,male
376,5317STDY7838742,L_CMP_A6,PL3_1511 A6,liver CMP A6,X5317STDY7838742,20 pcw,male
377,5317STDY7838743,L_CMP_A7,PL3_1511 A7,liver CMP A7,X5317STDY7838743,20 pcw,male
378,5317STDY7838744,L_CMP_A8,PL3_1511 A8,liver CMP A8,X5317STDY7838744,20 pcw,male
379,5317STDY7838745,L_CMP_A9,PL3_1511 A9,liver CMP A9,X5317STDY7838745,20 pcw,male
380,5317STDY7838746,L_CMP_A10,PL3_1511 A10,liver CMP A10,X5317STDY7838746,20 pcw,male
381,5317STDY7838747,L_CMP_A11,PL3_1511 A11,liver CMP A11,X5317STDY7838747,20 pcw,male
382,5317STDY7838748,L_CMP_A12,PL3_1511 A12,liver CMP A12,X5317STDY7838748,20 pcw,male
383,5317STDY7838749,L_CMP_B1,PL3_1511 B1,liver CMP B1,X5317STDY7838749,20 pcw,male
384,5317STDY7838750,L_CMP_B2,PL3_1511 B2,liver CMP B2,X5317STDY7838750,20 pcw,male
385,5317STDY7838751,L_CMP_B3,PL3_1511 B3,liver CMP B3,X5317STDY7838751,20 pcw,male
386,5317STDY7838752,L_CMP_B4,PL3_1511 B4,liver CMP B4,X5317STDY7838752,20 pcw,male
387,5317STDY7838753,L_CMP_B5,PL3_1511 B5,liver CMP B5,X5317STDY7838753,20 pcw,male
388,5317STDY7838754,L_CMP_B6,PL3_1511 B6,liver CMP B6,X5317STDY7838754,20 pcw,male
389,5317STDY7838755,L_CMP_B7,PL3_1511 B7,liver CMP B7,X5317STDY7838755,20 pcw,male
390,5317STDY7838756,L_CMP_B8,PL3_1511 B8,liver CMP B8,X5317STDY7838756,20 pcw,male
391,5317STDY7838757,L_CMP_B9,PL3_1511 B9,liver CMP B9,X5317STDY7838757,20 pcw,male
392,5317STDY7838758,L_CMP_B10,PL3_1511 B10,liver CMP B10,X5317STDY7838758,20 pcw,male
393,5317STDY7838759,L_CMP_B11,PL3_1511 B11,liver CMP B11,X5317STDY7838759,20 pcw,male
394,5317STDY7838760,L_CMP_B12,PL3_1511 B12,liver CMP B12,X5317STDY7838760,20 pcw,male
395,5317STDY7838761,L_CMP_C1,PL3_1511 C1,liver CMP C1,X5317STDY7838761,20 pcw,male
396,5317STDY7838762,L_CMP_C2,PL3_1511 C2,liver CMP C2,X5317STDY7838762,20 pcw,male
397,5317STDY7838763,L_CMP_C3,PL3_1511 C3,liver CMP C3,X5317STDY7838763,20 pcw,male
398,5317STDY7838764,L_CMP_C4,PL3_1511 C4,liver CMP C4,X5317STDY7838764,20 pcw,male
399,5317STDY7838765,L_CMP_C5,PL3_1511 C5,liver CMP C5,X5317STDY7838765,20 pcw,male
400,5317STDY7838766,L_CMP_C6,PL3_1511 C6,liver CMP C6,X5317STDY7838766,20 pcw,male
401,5317STDY7838767,L_CMP_C7,PL3_1511 C7,liver CMP C7,X5317STDY7838767,20 pcw,male
402,5317STDY7838768,L_CMP_C8,PL3_1511 C8,liver CMP C8,X5317STDY7838768,20 pcw,male
403,5317STDY7838769,L_CMP_C9,PL3_1511 C9,liver CMP C9,X5317STDY7838769,20 pcw,male
404,5317STDY7838770,L_CMP_C10,PL3_1511 C10,liver CMP C10,X5317STDY7838770,20 pcw,male
405,5317STDY7838771,L_CMP_C11,PL3_1511 C11,liver CMP C11,X5317STDY7838771,20 pcw,male
406,5317STDY7838772,L_CMP_C12,PL3_1511 C12,liver CMP C12,X5317STDY7838772,20 pcw,male
407,5317STDY7838773,L_MEP_D1,PL3_1511 D1,liver MEP D1,X5317STDY7838773,20 pcw,male
408,5317STDY7838774,L_MEP_D2,PL3_1511 D2,liver MEP D2,X5317STDY7838774,20 pcw,male
409,5317STDY7838775,L_MEP_D3,PL3_1511 D3,liver MEP D3,X5317STDY7838775,20 pcw,male
410,5317STDY7838776,L_MEP_D4,PL3_1511 D4,liver MEP D4,X5317STDY7838776,20 pcw,male
411,5317STDY7838777,L_MEP_D5,PL3_1511 D5,liver MEP D5,X5317STDY7838777,20 pcw,male
412,5317STDY7838778,L_MEP_D6,PL3_1511 D6,liver MEP D6,X5317STDY7838778,20 pcw,male
413,5317STDY7838779,L_MEP_D7,PL3_1511 D7,liver MEP D7,X5317STDY7838779,20 pcw,male
414,5317STDY7838780,L_MEP_D8,PL3_1511 D8,liver MEP D8,X5317STDY7838780,20 pcw,male
415,5317STDY7838781,L_MEP_D9,PL3_1511 D9,liver MEP D9,X5317STDY7838781,20 pcw,male
416,5317STDY7838782,L_MEP_D10,PL3_1511 D10,liver MEP D10,X5317STDY7838782,20 pcw,male
417,5317STDY7838783,L_MEP_D11,PL3_1511 D11,liver MEP D11,X5317STDY7838783,20 pcw,male
418,5317STDY7838784,L_MEP_D12,PL3_1511 D12,liver MEP D12,X5317STDY7838784,20 pcw,male
419,5317STDY7838785,L_MEP_E1,PL3_1511 E1,liver MEP E1,X5317STDY7838785,20 pcw,male
420,5317STDY7838786,L_MEP_E2,PL3_1511 E2,liver MEP E2,X5317STDY7838786,20 pcw,male
421,5317STDY7838787,L_MEP_E3,PL3_1511 E3,liver MEP E3,X5317STDY7838787,20 pcw,male
422,5317STDY7838788,L_MEP_E4,PL3_1511 E4,liver MEP E4,X5317STDY7838788,20 pcw,male
423,5317STDY7838789,L_MEP_E5,PL3_1511 E5,liver MEP E5,X5317STDY7838789,20 pcw,male
424,5317STDY7838790,L_MEP_E6,PL3_1511 E6,liver MEP E6,X5317STDY7838790,20 pcw,male
425,5317STDY7838791,L_MEP_E7,PL3_1511 E7,liver MEP E7,X5317STDY7838791,20 pcw,male
426,5317STDY7838792,L_MEP_E8,PL3_1511 E8,liver MEP E8,X5317STDY7838792,20 pcw,male
427,5317STDY7838793,L_MEP_E9,PL3_1511 E9,liver MEP E9,X5317STDY7838793,20 pcw,male
428,5317STDY7838794,L_MEP_E10,PL3_1511 E10,liver MEP E10,X5317STDY7838794,20 pcw,male
429,5317STDY7838795,L_MEP_E11,PL3_1511 E11,liver MEP E11,X5317STDY7838795,20 pcw,male
430,5317STDY7838796,L_MEP_E12,PL3_1511 E12,liver MEP E12,X5317STDY7838796,20 pcw,male
431,5317STDY7838797,L_MEP_F1,PL3_1511 F1,liver MEP F1,X5317STDY7838797,20 pcw,male
432,5317STDY7838798,L_MEP_F2,PL3_1511 F2,liver MEP F2,X5317STDY7838798,20 pcw,male
433,5317STDY7838799,L_MEP_F3,PL3_1511 F3,liver MEP F3,X5317STDY7838799,20 pcw,male
434,5317STDY7838800,L_MEP_F4,PL3_1511 F4,liver MEP F4,X5317STDY7838800,20 pcw,male
435,5317STDY7838801,L_MEP_F5,PL3_1511 F5,liver MEP F5,X5317STDY7838801,20 pcw,male
436,5317STDY7838802,L_MEP_F6,PL3_1511 F6,liver MEP F6,X5317STDY7838802,20 pcw,male
437,5317STDY7838803,L_MEP_F7,PL3_1511 F7,liver MEP F7,X5317STDY7838803,20 pcw,male
438,5317STDY7838804,L_MEP_F8,PL3_1511 F8,liver MEP F8,X5317STDY7838804,20 pcw,male
439,5317STDY7838805,L_MEP_F9,PL3_1511 F9,liver MEP F9,X5317STDY7838805,20 pcw,male
440,5317STDY7838806,L_MEP_F10,PL3_1511 F10,liver MEP F10,X5317STDY7838806,20 pcw,male
441,5317STDY7838807,L_MEP_F11,PL3_1511 F11,liver MEP F11,X5317STDY7838807,20 pcw,male
442,5317STDY7838808,L_MEP_F12,PL3_1511 F12,liver MEP F12,X5317STDY7838808,20 pcw,male
443,5317STDY7838809,L_GMP_G1,PL3_1511 G1,liver GMP G1,X5317STDY7838809,20 pcw,male
444,5317STDY7838810,L_GMP_G2,PL3_1511 G2,liver GMP G2,X5317STDY7838810,20 pcw,male
445,5317STDY7838811,L_GMP_G3,PL3_1511 G3,liver GMP G3,X5317STDY7838811,20 pcw,male
446,5317STDY7838812,L_GMP_G4,PL3_1511 G4,liver GMP G4,X5317STDY7838812,20 pcw,male
447,5317STDY7838813,L_GMP_G5,PL3_1511 G5,liver GMP G5,X5317STDY7838813,20 pcw,male
448,5317STDY7838814,L_GMP_G6,PL3_1511 G6,liver GMP G6,X5317STDY7838814,20 pcw,male
449,5317STDY7838815,L_GMP_G7,PL3_1511 G7,liver GMP G7,X5317STDY7838815,20 pcw,male
450,5317STDY7838816,L_GMP_G8,PL3_1511 G8,liver GMP G8,X5317STDY7838816,20 pcw,male
451,5317STDY7838817,L_GMP_G9,PL3_1511 G9,liver GMP G9,X5317STDY7838817,20 pcw,male
452,5317STDY7838818,L_GMP_G10,PL3_1511 G10,liver GMP G10,X5317STDY7838818,20 pcw,male
453,5317STDY7838819,L_GMP_G11,PL3_1511 G11,liver GMP G11,X5317STDY7838819,20 pcw,male
454,5317STDY7838820,L_GMP_G12,PL3_1511 G12,liver GMP G12,X5317STDY7838820,20 pcw,male
455,5317STDY7838821,L_GMP_H1,PL3_1511 H1,liver GMP H1,X5317STDY7838821,20 pcw,male
456,5317STDY7838822,L_GMP_H2,PL3_1511 H2,liver GMP H2,X5317STDY7838822,20 pcw,male
457,5317STDY7838823,L_GMP_H3,PL3_1511 H3,liver GMP H3,X5317STDY7838823,20 pcw,male
458,5317STDY7838824,L_GMP_H4,PL3_1511 H4,liver GMP H4,X5317STDY7838824,20 pcw,male
459,5317STDY7838825,L_GMP_H5,PL3_1511 H5,liver GMP H5,X5317STDY7838825,20 pcw,male
460,5317STDY7838826,L_GMP_H6,PL3_1511 H6,liver GMP H6,X5317STDY7838826,20 pcw,male
461,5317STDY7838827,L_GMP_H7,PL3_1511 H7,liver GMP H7,X5317STDY7838827,20 pcw,male
462,5317STDY7838828,L_GMP_H8,PL3_1511 H8,liver GMP H8,X5317STDY7838828,20 pcw,male
463,5317STDY7838829,L_GMP_H9,PL3_1511 H9,liver GMP H9,X5317STDY7838829,20 pcw,male
464,5317STDY7838830,L_GMP_H10,PL3_1511 H10,liver GMP H10,X5317STDY7838830,20 pcw,male
465,5317STDY7838831,F_MSC_A1,PL2_MSC2012 A1,femur MSC A1,X5317STDY7838831,19 pcw,female
466,5317STDY7838832,F_MSC_A2,PL2_MSC2012 A2,femur MSC A2,X5317STDY7838832,19 pcw,female
467,5317STDY7838833,F_MSC_A3,PL2_MSC2012 A3,femur MSC A3,X5317STDY7838833,19 pcw,female
468,5317STDY7838834,F_MSC_A4,PL2_MSC2012 A4,femur MSC A4,X5317STDY7838834,19 pcw,female
469,5317STDY7838835,F_MSC_A5,PL2_MSC2012 A5,femur MSC A5,X5317STDY7838835,19 pcw,female
470,5317STDY7838836,F_MSC_A6,PL2_MSC2012 A6,femur MSC A6,X5317STDY7838836,19 pcw,female
471,5317STDY7838837,F_MSC_A7,PL2_MSC2012 A7,femur MSC A7,X5317STDY7838837,19 pcw,female
472,5317STDY7838838,F_MSC_A8,PL2_MSC2012 A8,femur MSC A8,X5317STDY7838838,19 pcw,female
473,5317STDY7838839,F_MSC_A9,PL2_MSC2012 A9,femur MSC A9,X5317STDY7838839,19 pcw,female
474,5317STDY7838840,F_MSC_A10,PL2_MSC2012 A10,femur MSC A10,X5317STDY7838840,19 pcw,female
475,5317STDY7838841,F_MSC_A11,PL2_MSC2012 A11,femur MSC A11,X5317STDY7838841,19 pcw,female
476,5317STDY7838842,F_MSC_A12,PL2_MSC2012 A12,femur MSC A12,X5317STDY7838842,19 pcw,female
477,5317STDY7838843,F_MSC_B1,PL2_MSC2012 B1,femur MSC B1,X5317STDY7838843,19 pcw,female
478,5317STDY7838844,F_MSC_B2,PL2_MSC2012 B2,femur MSC B2,X5317STDY7838844,19 pcw,female
479,5317STDY7838845,F_MSC_B3,PL2_MSC2012 B3,femur MSC B3,X5317STDY7838845,19 pcw,female
480,5317STDY7838846,F_MSC_B4,PL2_MSC2012 B4,femur MSC B4,X5317STDY7838846,19 pcw,female
481,5317STDY7838847,F_MSC_B5,PL2_MSC2012 B5,femur MSC B5,X5317STDY7838847,19 pcw,female
482,5317STDY7838848,F_MSC_B6,PL2_MSC2012 B6,femur MSC B6,X5317STDY7838848,19 pcw,female
483,5317STDY7838849,F_MSC_B7,PL2_MSC2012 B7,femur MSC B7,X5317STDY7838849,19 pcw,female
484,5317STDY7838850,F_MSC_B8,PL2_MSC2012 B8,femur MSC B8,X5317STDY7838850,19 pcw,female
485,5317STDY7838851,F_MSC_B9,PL2_MSC2012 B9,femur MSC B9,X5317STDY7838851,19 pcw,female
486,5317STDY7838852,F_MSC_B10,PL2_MSC2012 B10,femur MSC B10,X5317STDY7838852,19 pcw,female
487,5317STDY7838853,F_MSC_B11,PL2_MSC2012 B11,femur MSC B11,X5317STDY7838853,19 pcw,female
488,5317STDY7838854,F_MSC_B12,PL2_MSC2012 B12,femur MSC B12,X5317STDY7838854,19 pcw,female
489,5317STDY7838855,F_MSC_C1,PL2_MSC2012 C1,femur MSC C1,X5317STDY7838855,19 pcw,female
490,5317STDY7838856,F_MSC_C2,PL2_MSC2012 C2,femur MSC C2,X5317STDY7838856,19 pcw,female
491,5317STDY7838857,F_MSC_C3,PL2_MSC2012 C3,femur MSC C3,X5317STDY7838857,19 pcw,female
492,5317STDY7838858,F_MSC_C4,PL2_MSC2012 C4,femur MSC C4,X5317STDY7838858,19 pcw,female
493,5317STDY7838859,F_MSC_C5,PL2_MSC2012 C5,femur MSC C5,X5317STDY7838859,19 pcw,female
494,5317STDY7838860,F_MSC_C6,PL2_MSC2012 C6,femur MSC C6,X5317STDY7838860,19 pcw,female
495,5317STDY7838861,F_MSC_C7,PL2_MSC2012 C7,femur MSC C7,X5317STDY7838861,19 pcw,female
496,5317STDY7838862,F_MSC_C8,PL2_MSC2012 C8,femur MSC C8,X5317STDY7838862,19 pcw,female
497,5317STDY7838863,F_MSC_C9,PL2_MSC2012 C9,femur MSC C9,X5317STDY7838863,19 pcw,female
498,5317STDY7838864,F_MSC_C10,PL2_MSC2012 C10,femur MSC C10,X5317STDY7838864,19 pcw,female
499,5317STDY7838865,F_MSC_C11,PL2_MSC2012 C11,femur MSC C11,X5317STDY7838865,19 pcw,female
500,5317STDY7838866,F_MSC_C12,PL2_MSC2012 C12,femur MSC C12,X5317STDY7838866,19 pcw,female
501,5317STDY7838867,F_MSC_D1,PL2_MSC2012 D1,femur MSC D1,X5317STDY7838867,19 pcw,female
502,5317STDY7838868,F_MSC_D2,PL2_MSC2012 D2,femur MSC D2,X5317STDY7838868,19 pcw,female
503,5317STDY7838869,F_MSC_D3,PL2_MSC2012 D3,femur MSC D3,X5317STDY7838869,19 pcw,female
504,5317STDY7838870,F_MSC_D4,PL2_MSC2012 D4,femur MSC D4,X5317STDY7838870,19 pcw,female
505,5317STDY7838871,F_MSC_D5,PL2_MSC2012 D5,femur MSC D5,X5317STDY7838871,19 pcw,female
506,5317STDY7838872,F_MSC_D6,PL2_MSC2012 D6,femur MSC D6,X5317STDY7838872,19 pcw,female
507,5317STDY7838873,F_MSC_D7,PL2_MSC2012 D7,femur MSC D7,X5317STDY7838873,19 pcw,female
508,5317STDY7838874,F_MSC_D8,PL2_MSC2012 D8,femur MSC D8,X5317STDY7838874,19 pcw,female
509,5317STDY7838875,F_MSC_D9,PL2_MSC2012 D9,femur MSC D9,X5317STDY7838875,19 pcw,female
510,5317STDY7838876,F_MSC_D10,PL2_MSC2012 D10,femur MSC D10,X5317STDY7838876,19 pcw,female
511,5317STDY7838877,F_MSC_D11,PL2_MSC2012 D11,femur MSC D11,X5317STDY7838877,19 pcw,female
512,5317STDY7838878,F_MSC_D12,PL2_MSC2012 D12,femur MSC D12,X5317STDY7838878,19 pcw,female
513,5317STDY7838879,F_MSC_E1,PL2_MSC2012 E1,femur MSC E1,X5317STDY7838879,19 pcw,female
514,5317STDY7838880,F_MSC_E2,PL2_MSC2012 E2,femur MSC E2,X5317STDY7838880,19 pcw,female
515,5317STDY7838881,F_MSC_E3,PL2_MSC2012 E3,femur MSC E3,X5317STDY7838881,19 pcw,female
516,5317STDY7838882,F_MSC_E4,PL2_MSC2012 E4,femur MSC E4,X5317STDY7838882,19 pcw,female
517,5317STDY7838883,F_MSC_E5,PL2_MSC2012 E5,femur MSC E5,X5317STDY7838883,19 pcw,female
518,5317STDY7838884,F_MSC_E6,PL2_MSC2012 E6,femur MSC E6,X5317STDY7838884,19 pcw,female
519,5317STDY7838885,F_MSC_E7,PL2_MSC2012 E7,femur MSC E7,X5317STDY7838885,19 pcw,female
520,5317STDY7838886,F_MSC_E8,PL2_MSC2012 E8,femur MSC E8,X5317STDY7838886,19 pcw,female
521,5317STDY7838887,F_MSC_E9,PL2_MSC2012 E9,femur MSC E9,X5317STDY7838887,19 pcw,female
522,5317STDY7838888,F_MSC_E10,PL2_MSC2012 E10,femur MSC E10,X5317STDY7838888,19 pcw,female
523,5317STDY7838889,F_MSC_E11,PL2_MSC2012 E11,femur MSC E11,X5317STDY7838889,19 pcw,female
524,5317STDY7838890,F_MSC_E12,PL2_MSC2012 E12,femur MSC E12,X5317STDY7838890,19 pcw,female
525,5317STDY7838891,F_MSC_F1,PL2_MSC2012 F1,femur MSC F1,X5317STDY7838891,19 pcw,female
526,5317STDY7838892,F_MSC_F2,PL2_MSC2012 F2,femur MSC F2,X5317STDY7838892,19 pcw,female
527,5317STDY7838893,F_MSC_F3,PL2_MSC2012 F3,femur MSC F3,X5317STDY7838893,19 pcw,female
528,5317STDY7838894,F_MSC_F4,PL2_MSC2012 F4,femur MSC F4,X5317STDY7838894,19 pcw,female
529,5317STDY7838895,F_MSC_F5,PL2_MSC2012 F5,femur MSC F5,X5317STDY7838895,19 pcw,female
530,5317STDY7838896,F_MSC_F6,PL2_MSC2012 F6,femur MSC F6,X5317STDY7838896,19 pcw,female
531,5317STDY7838897,F_MSC_F7,PL2_MSC2012 F7,femur MSC F7,X5317STDY7838897,19 pcw,female
532,5317STDY7838898,F_MSC_F8,PL2_MSC2012 F8,femur MSC F8,X5317STDY7838898,19 pcw,female
533,5317STDY7838899,F_MSC_F9,PL2_MSC2012 F9,femur MSC F9,X5317STDY7838899,19 pcw,female
534,5317STDY7838900,F_MSC_F10,PL2_MSC2012 F10,femur MSC F10,X5317STDY7838900,19 pcw,female
535,5317STDY7838901,F_MSC_F11,PL2_MSC2012 F11,femur MSC F11,X5317STDY7838901,19 pcw,female
536,5317STDY7838902,F_MSC_F12,PL2_MSC2012 F12,femur MSC F12,X5317STDY7838902,19 pcw,female
537,5317STDY7838903,F_MSC_G1,PL2_MSC2012 G1,femur MSC G1,X5317STDY7838903,19 pcw,female
538,5317STDY7838904,F_MSC_G2,PL2_MSC2012 G2,femur MSC G2,X5317STDY7838904,19 pcw,female
539,5317STDY7838905,F_MSC_G3,PL2_MSC2012 G3,femur MSC G3,X5317STDY7838905,19 pcw,female
540,5317STDY7838906,F_MSC_G4,PL2_MSC2012 G4,femur MSC G4,X5317STDY7838906,19 pcw,female
541,5317STDY7838907,F_MSC_G5,PL2_MSC2012 G5,femur MSC G5,X5317STDY7838907,19 pcw,female
542,5317STDY7838908,F_MSC_G6,PL2_MSC2012 G6,femur MSC G6,X5317STDY7838908,19 pcw,female
543,5317STDY7838909,F_MSC_G7,PL2_MSC2012 G7,femur MSC G7,X5317STDY7838909,19 pcw,female
544,5317STDY7838910,F_MSC_G8,PL2_MSC2012 G8,femur MSC G8,X5317STDY7838910,19 pcw,female
545,5317STDY7838911,F_MSC_G9,PL2_MSC2012 G9,femur MSC G9,X5317STDY7838911,19 pcw,female
546,5317STDY7838912,F_MSC_G10,PL2_MSC2012 G10,femur MSC G10,X5317STDY7838912,19 pcw,female
547,5317STDY7838913,F_MSC_G11,PL2_MSC2012 G11,femur MSC G11,X5317STDY7838913,19 pcw,female
548,5317STDY7838914,F_MSC_G12,PL2_MSC2012 G12,femur MSC G12,X5317STDY7838914,19 pcw,female
549,5317STDY7838915,F_MSC_H1,PL2_MSC2012 H1,femur MSC H1,X5317STDY7838915,19 pcw,female
550,5317STDY7838916,F_MSC_H2,PL2_MSC2012 H2,femur MSC H2,X5317STDY7838916,19 pcw,female
551,5317STDY7838917,F_MSC_H3,PL2_MSC2012 H3,femur MSC H3,X5317STDY7838917,19 pcw,female
552,5317STDY7838918,F_MSC_H4,PL2_MSC2012 H4,femur MSC H4,X5317STDY7838918,19 pcw,female
553,5317STDY7838919,F_MSC_H5,PL2_MSC2012 H5,femur MSC H5,X5317STDY7838919,19 pcw,female
554,5317STDY7838920,F_MSC_H6,PL2_MSC2012 H6,femur MSC H6,X5317STDY7838920,19 pcw,female
555,5317STDY7838921,F_MSC_H7,PL2_MSC2012 H7,femur MSC H7,X5317STDY7838921,19 pcw,female
556,5317STDY7838922,F_MSC_H8,PL2_MSC2012 H8,femur MSC H8,X5317STDY7838922,19 pcw,female