Data Source,femur full RNA plate 6_001
,,,,,FSC,SSC,*530/30 (488),*585/29 (561),*750LP (561),*720/40 (640),*425/26 (405),*780/60 (640)
Well,Population,Events,% Total,% Parent,Median,Median,Median,Median,Median,Median,Median,Median
A1,All Events,1,100.00%,NaN,43900,14207,389,435,93,9,164,2299
A1,Cells,1,100.00%,100.00%,43900,14207,389,435,93,9,164,2299
A1,Singles,1,100.00%,100.00%,43900,14207,389,435,93,9,164,2299
A1,lineage neg,1,100.00%,100.00%,43900,14207,389,435,93,9,164,2299
A1,CD34+CD38-,1,100.00%,100.00%,43900,14207,389,435,93,9,164,2299
A1,CD52+CD62L+,1,100.00%,100.00%,43900,14207,389,435,93,9,164,2299
A1,CD133+,1,100.00%,100.00%,43900,14207,389,435,93,9,164,2299
A2,All Events,1,100.00%,NaN,36058,17010,544,113,105,1,72,2304
A2,Cells,1,100.00%,100.00%,36058,17010,544,113,105,1,72,2304
A2,Singles,1,100.00%,100.00%,36058,17010,544,113,105,1,72,2304
A2,lineage neg,1,100.00%,100.00%,36058,17010,544,113,105,1,72,2304
A2,CD34+CD38-,1,100.00%,100.00%,36058,17010,544,113,105,1,72,2304
A2,CD52+CD62L+,1,100.00%,100.00%,36058,17010,544,113,105,1,72,2304
A2,CD133+,1,100.00%,100.00%,36058,17010,544,113,105,1,72,2304
A3,All Events,1,100.00%,NaN,37373,13460,386,206,88,1,71,3144
A3,Cells,1,100.00%,100.00%,37373,13460,386,206,88,1,71,3144
A3,Singles,1,100.00%,100.00%,37373,13460,386,206,88,1,71,3144
A3,lineage neg,1,100.00%,100.00%,37373,13460,386,206,88,1,71,3144
A3,CD34+CD38-,1,100.00%,100.00%,37373,13460,386,206,88,1,71,3144
A3,CD52+CD62L+,1,100.00%,100.00%,37373,13460,386,206,88,1,71,3144
A3,CD133+,1,100.00%,100.00%,37373,13460,386,206,88,1,71,3144
A4,All Events,1,100.00%,NaN,35470,16179,190,161,56,12,531,767
A4,Cells,1,100.00%,100.00%,35470,16179,190,161,56,12,531,767
A4,Singles,1,100.00%,100.00%,35470,16179,190,161,56,12,531,767
A4,lineage neg,1,100.00%,100.00%,35470,16179,190,161,56,12,531,767
A4,CD34+CD38-,1,100.00%,100.00%,35470,16179,190,161,56,12,531,767
A4,CD52+CD62L+,1,100.00%,100.00%,35470,16179,190,161,56,12,531,767
A4,CD133+,1,100.00%,100.00%,35470,16179,190,161,56,12,531,767
A5,All Events,1,100.00%,NaN,37481,14154,402,330,112,5,113,1709
A5,Cells,1,100.00%,100.00%,37481,14154,402,330,112,5,113,1709
A5,Singles,1,100.00%,100.00%,37481,14154,402,330,112,5,113,1709
A5,lineage neg,1,100.00%,100.00%,37481,14154,402,330,112,5,113,1709
A5,CD34+CD38-,1,100.00%,100.00%,37481,14154,402,330,112,5,113,1709
A5,CD52+CD62L+,1,100.00%,100.00%,37481,14154,402,330,112,5,113,1709
A5,CD133+,1,100.00%,100.00%,37481,14154,402,330,112,5,113,1709
A6,All Events,1,100.00%,NaN,37299,16126,202,182,102,1,170,1191
A6,Cells,1,100.00%,100.00%,37299,16126,202,182,102,1,170,1191
A6,Singles,1,100.00%,100.00%,37299,16126,202,182,102,1,170,1191
A6,lineage neg,1,100.00%,100.00%,37299,16126,202,182,102,1,170,1191
A6,CD34+CD38-,1,100.00%,100.00%,37299,16126,202,182,102,1,170,1191
A6,CD52+CD62L+,1,100.00%,100.00%,37299,16126,202,182,102,1,170,1191
A6,CD133+,1,100.00%,100.00%,37299,16126,202,182,102,1,170,1191
A7,All Events,1,100.00%,NaN,34992,12268,430,403,54,13,156,2832
A7,Cells,1,100.00%,100.00%,34992,12268,430,403,54,13,156,2832
A7,Singles,1,100.00%,100.00%,34992,12268,430,403,54,13,156,2832
A7,lineage neg,1,100.00%,100.00%,34992,12268,430,403,54,13,156,2832
A7,CD34+CD38-,1,100.00%,100.00%,34992,12268,430,403,54,13,156,2832
A7,CD52+CD62L+,1,100.00%,100.00%,34992,12268,430,403,54,13,156,2832
A7,CD133+,1,100.00%,100.00%,34992,12268,430,403,54,13,156,2832
A8,All Events,1,100.00%,NaN,38669,15178,269,294,29,8,283,2231
A8,Cells,1,100.00%,100.00%,38669,15178,269,294,29,8,283,2231
A8,Singles,1,100.00%,100.00%,38669,15178,269,294,29,8,283,2231
A8,lineage neg,1,100.00%,100.00%,38669,15178,269,294,29,8,283,2231
A8,CD34+CD38-,1,100.00%,100.00%,38669,15178,269,294,29,8,283,2231
A8,CD52+CD62L+,1,100.00%,100.00%,38669,15178,269,294,29,8,283,2231
A8,CD133+,1,100.00%,100.00%,38669,15178,269,294,29,8,283,2231
A9,All Events,10,100.00%,NaN,39656,14501,335,382,50,7,181,2065
A9,Cells,10,100.00%,100.00%,39656,14501,335,382,50,7,181,2065
A9,Singles,10,100.00%,100.00%,39656,14501,335,382,50,7,181,2065
A9,lineage neg,10,100.00%,100.00%,39656,14501,335,382,50,7,181,2065
A9,CD34+CD38-,10,100.00%,100.00%,39656,14501,335,382,50,7,181,2065
A9,CD52+CD62L+,10,100.00%,100.00%,39656,14501,335,382,50,7,181,2065
A9,CD133+,10,100.00%,100.00%,39656,14501,335,382,50,7,181,2065
A10,All Events,10,100.00%,NaN,37191,15416,420,289,73,5,92,2960
A10,Cells,10,100.00%,100.00%,37191,15416,420,289,73,5,92,2960
A10,Singles,10,100.00%,100.00%,37191,15416,420,289,73,5,92,2960
A10,lineage neg,10,100.00%,100.00%,37191,15416,420,289,73,5,92,2960
A10,CD34+CD38-,10,100.00%,100.00%,37191,15416,420,289,73,5,92,2960
A10,CD52+CD62L+,10,100.00%,100.00%,37191,15416,420,289,73,5,92,2960
A10,CD133+,10,100.00%,100.00%,37191,15416,420,289,73,5,92,2960
A11,All Events,1,100.00%,NaN,32791,14798,118,43,119,1,263,1103
A11,Cells,1,100.00%,100.00%,32791,14798,118,43,119,1,263,1103
A11,Singles,1,100.00%,100.00%,32791,14798,118,43,119,1,263,1103
A11,lineage neg,1,100.00%,100.00%,32791,14798,118,43,119,1,263,1103
A11,CD34+CD38-,1,100.00%,100.00%,32791,14798,118,43,119,1,263,1103
A11,CD52+CD62L+,1,100.00%,100.00%,32791,14798,118,43,119,1,263,1103
A11,CD133+,1,100.00%,100.00%,32791,14798,118,43,119,1,263,1103
A12,All Events,1,100.00%,NaN,39393,16050,136,301,75,11,815,1116
A12,Cells,1,100.00%,100.00%,39393,16050,136,301,75,11,815,1116
A12,Singles,1,100.00%,100.00%,39393,16050,136,301,75,11,815,1116
A12,lineage neg,1,100.00%,100.00%,39393,16050,136,301,75,11,815,1116
A12,CD34+CD38-,1,100.00%,100.00%,39393,16050,136,301,75,11,815,1116
A12,CD52+CD62L+,1,100.00%,100.00%,39393,16050,136,301,75,11,815,1116
A12,CD133+,1,100.00%,100.00%,39393,16050,136,301,75,11,815,1116
B1,All Events,1,100.00%,NaN,41458,16484,742,1025,110,1,143,4472
B1,Cells,1,100.00%,100.00%,41458,16484,742,1025,110,1,143,4472
B1,Singles,1,100.00%,100.00%,41458,16484,742,1025,110,1,143,4472
B1,lineage neg,1,100.00%,100.00%,41458,16484,742,1025,110,1,143,4472
B1,CD34+CD38-,1,100.00%,100.00%,41458,16484,742,1025,110,1,143,4472
B1,CD52+CD62L+,1,100.00%,100.00%,41458,16484,742,1025,110,1,143,4472
B1,CD133+,1,100.00%,100.00%,41458,16484,742,1025,110,1,143,4472
B2,All Events,1,100.00%,NaN,35712,15472,181,136,40,1,518,815
B2,Cells,1,100.00%,100.00%,35712,15472,181,136,40,1,518,815
B2,Singles,1,100.00%,100.00%,35712,15472,181,136,40,1,518,815
B2,lineage neg,1,100.00%,100.00%,35712,15472,181,136,40,1,518,815
B2,CD34+CD38-,1,100.00%,100.00%,35712,15472,181,136,40,1,518,815
B2,CD52+CD62L+,1,100.00%,100.00%,35712,15472,181,136,40,1,518,815
B2,CD133+,1,100.00%,100.00%,35712,15472,181,136,40,1,518,815
B3,All Events,1,100.00%,NaN,40030,15083,339,165,71,6,614,759
B3,Cells,1,100.00%,100.00%,40030,15083,339,165,71,6,614,759
B3,Singles,1,100.00%,100.00%,40030,15083,339,165,71,6,614,759
B3,lineage neg,1,100.00%,100.00%,40030,15083,339,165,71,6,614,759
B3,CD34+CD38-,1,100.00%,100.00%,40030,15083,339,165,71,6,614,759
B3,CD52+CD62L+,1,100.00%,100.00%,40030,15083,339,165,71,6,614,759
B3,CD133+,1,100.00%,100.00%,40030,15083,339,165,71,6,614,759
B4,All Events,1,100.00%,NaN,41289,15446,386,1401,65,1,85,2988
B4,Cells,1,100.00%,100.00%,41289,15446,386,1401,65,1,85,2988
B4,Singles,1,100.00%,100.00%,41289,15446,386,1401,65,1,85,2988
B4,lineage neg,1,100.00%,100.00%,41289,15446,386,1401,65,1,85,2988
B4,CD34+CD38-,1,100.00%,100.00%,41289,15446,386,1401,65,1,85,2988
B4,CD52+CD62L+,1,100.00%,100.00%,41289,15446,386,1401,65,1,85,2988
B4,CD133+,1,100.00%,100.00%,41289,15446,386,1401,65,1,85,2988
B5,All Events,1,100.00%,NaN,32164,13505,153,126,88,4,496,876
B5,Cells,1,100.00%,100.00%,32164,13505,153,126,88,4,496,876
B5,Singles,1,100.00%,100.00%,32164,13505,153,126,88,4,496,876
B5,lineage neg,1,100.00%,100.00%,32164,13505,153,126,88,4,496,876
B5,CD34+CD38-,1,100.00%,100.00%,32164,13505,153,126,88,4,496,876
B5,CD52+CD62L+,1,100.00%,100.00%,32164,13505,153,126,88,4,496,876
B5,CD133+,1,100.00%,100.00%,32164,13505,153,126,88,4,496,876
B6,All Events,1,100.00%,NaN,33796,11618,311,338,105,4,298,2373
B6,Cells,1,100.00%,100.00%,33796,11618,311,338,105,4,298,2373
B6,Singles,1,100.00%,100.00%,33796,11618,311,338,105,4,298,2373
B6,lineage neg,1,100.00%,100.00%,33796,11618,311,338,105,4,298,2373
B6,CD34+CD38-,1,100.00%,100.00%,33796,11618,311,338,105,4,298,2373
B6,CD52+CD62L+,1,100.00%,100.00%,33796,11618,311,338,105,4,298,2373
B6,CD133+,1,100.00%,100.00%,33796,11618,311,338,105,4,298,2373
B7,All Events,1,100.00%,NaN,39394,16709,270,262,89,15,97,2480
B7,Cells,1,100.00%,100.00%,39394,16709,270,262,89,15,97,2480
B7,Singles,1,100.00%,100.00%,39394,16709,270,262,89,15,97,2480
B7,lineage neg,1,100.00%,100.00%,39394,16709,270,262,89,15,97,2480
B7,CD34+CD38-,1,100.00%,100.00%,39394,16709,270,262,89,15,97,2480
B7,CD52+CD62L+,1,100.00%,100.00%,39394,16709,270,262,89,15,97,2480
B7,CD133+,1,100.00%,100.00%,39394,16709,270,262,89,15,97,2480
B8,All Events,1,100.00%,NaN,34127,10546,204,160,26,9,78,2148
B8,Cells,1,100.00%,100.00%,34127,10546,204,160,26,9,78,2148
B8,Singles,1,100.00%,100.00%,34127,10546,204,160,26,9,78,2148
B8,lineage neg,1,100.00%,100.00%,34127,10546,204,160,26,9,78,2148
B8,CD34+CD38-,1,100.00%,100.00%,34127,10546,204,160,26,9,78,2148
B8,CD52+CD62L+,1,100.00%,100.00%,34127,10546,204,160,26,9,78,2148
B8,CD133+,1,100.00%,100.00%,34127,10546,204,160,26,9,78,2148
B9,All Events,1,100.00%,NaN,39522,15468,842,513,18,1,62,4433
B9,Cells,1,100.00%,100.00%,39522,15468,842,513,18,1,62,4433
B9,Singles,1,100.00%,100.00%,39522,15468,842,513,18,1,62,4433
B9,lineage neg,1,100.00%,100.00%,39522,15468,842,513,18,1,62,4433
B9,CD34+CD38-,1,100.00%,100.00%,39522,15468,842,513,18,1,62,4433
B9,CD52+CD62L+,1,100.00%,100.00%,39522,15468,842,513,18,1,62,4433
B9,CD133+,1,100.00%,100.00%,39522,15468,842,513,18,1,62,4433
B10,All Events,1,100.00%,NaN,35253,16552,487,516,102,1,570,2236
B10,Cells,1,100.00%,100.00%,35253,16552,487,516,102,1,570,2236
B10,Singles,1,100.00%,100.00%,35253,16552,487,516,102,1,570,2236
B10,lineage neg,1,100.00%,100.00%,35253,16552,487,516,102,1,570,2236
B10,CD34+CD38-,1,100.00%,100.00%,35253,16552,487,516,102,1,570,2236
B10,CD52+CD62L+,1,100.00%,100.00%,35253,16552,487,516,102,1,570,2236
B10,CD133+,1,100.00%,100.00%,35253,16552,487,516,102,1,570,2236
B11,All Events,1,100.00%,NaN,38505,22740,543,325,53,1,59,2968
B11,Cells,1,100.00%,100.00%,38505,22740,543,325,53,1,59,2968
B11,Singles,1,100.00%,100.00%,38505,22740,543,325,53,1,59,2968
B11,lineage neg,1,100.00%,100.00%,38505,22740,543,325,53,1,59,2968
B11,CD34+CD38-,1,100.00%,100.00%,38505,22740,543,325,53,1,59,2968
B11,CD52+CD62L+,1,100.00%,100.00%,38505,22740,543,325,53,1,59,2968
B11,CD133+,1,100.00%,100.00%,38505,22740,543,325,53,1,59,2968
B12,All Events,1,100.00%,NaN,32663,13996,303,178,81,4,145,1093
B12,Cells,1,100.00%,100.00%,32663,13996,303,178,81,4,145,1093
B12,Singles,1,100.00%,100.00%,32663,13996,303,178,81,4,145,1093
B12,lineage neg,1,100.00%,100.00%,32663,13996,303,178,81,4,145,1093
B12,CD34+CD38-,1,100.00%,100.00%,32663,13996,303,178,81,4,145,1093
B12,CD52+CD62L+,1,100.00%,100.00%,32663,13996,303,178,81,4,145,1093
B12,CD133+,1,100.00%,100.00%,32663,13996,303,178,81,4,145,1093
C1,All Events,1,100.00%,NaN,40493,12951,409,500,51,1,125,3017
C1,Cells,1,100.00%,100.00%,40493,12951,409,500,51,1,125,3017
C1,Singles,1,100.00%,100.00%,40493,12951,409,500,51,1,125,3017
C1,lineage neg,1,100.00%,100.00%,40493,12951,409,500,51,1,125,3017
C1,CD34+CD38-,1,100.00%,100.00%,40493,12951,409,500,51,1,125,3017
C1,CD52+CD62L+,1,100.00%,100.00%,40493,12951,409,500,51,1,125,3017
C1,CD133+,1,100.00%,100.00%,40493,12951,409,500,51,1,125,3017
C2,All Events,1,100.00%,NaN,30573,15092,122,78,87,5,354,409
C2,Cells,1,100.00%,100.00%,30573,15092,122,78,87,5,354,409
C2,Singles,1,100.00%,100.00%,30573,15092,122,78,87,5,354,409
C2,lineage neg,1,100.00%,100.00%,30573,15092,122,78,87,5,354,409
C2,CD34+CD38-,1,100.00%,100.00%,30573,15092,122,78,87,5,354,409
C2,CD52+CD62L+,1,100.00%,100.00%,30573,15092,122,78,87,5,354,409
C2,CD133+,1,100.00%,100.00%,30573,15092,122,78,87,5,354,409
C3,All Events,1,100.00%,NaN,33461,15678,131,173,77,14,159,649
C3,Cells,1,100.00%,100.00%,33461,15678,131,173,77,14,159,649
C3,Singles,1,100.00%,100.00%,33461,15678,131,173,77,14,159,649
C3,lineage neg,1,100.00%,100.00%,33461,15678,131,173,77,14,159,649
C3,CD34+CD38-,1,100.00%,100.00%,33461,15678,131,173,77,14,159,649
C3,CD52+CD62L+,1,100.00%,100.00%,33461,15678,131,173,77,14,159,649
C3,CD133+,1,100.00%,100.00%,33461,15678,131,173,77,14,159,649
C4,All Events,1,100.00%,NaN,34614,16321,511,448,85,1,73,3183
C4,Cells,1,100.00%,100.00%,34614,16321,511,448,85,1,73,3183
C4,Singles,1,100.00%,100.00%,34614,16321,511,448,85,1,73,3183
C4,lineage neg,1,100.00%,100.00%,34614,16321,511,448,85,1,73,3183
C4,CD34+CD38-,1,100.00%,100.00%,34614,16321,511,448,85,1,73,3183
C4,CD52+CD62L+,1,100.00%,100.00%,34614,16321,511,448,85,1,73,3183
C4,CD133+,1,100.00%,100.00%,34614,16321,511,448,85,1,73,3183
C5,All Events,1,100.00%,NaN,38128,14830,321,218,59,1,105,2002
C5,Cells,1,100.00%,100.00%,38128,14830,321,218,59,1,105,2002
C5,Singles,1,100.00%,100.00%,38128,14830,321,218,59,1,105,2002
C5,lineage neg,1,100.00%,100.00%,38128,14830,321,218,59,1,105,2002
C5,CD34+CD38-,1,100.00%,100.00%,38128,14830,321,218,59,1,105,2002
C5,CD52+CD62L+,1,100.00%,100.00%,38128,14830,321,218,59,1,105,2002
C5,CD133+,1,100.00%,100.00%,38128,14830,321,218,59,1,105,2002
C6,All Events,1,100.00%,NaN,34359,15662,308,212,110,9,165,2656
C6,Cells,1,100.00%,100.00%,34359,15662,308,212,110,9,165,2656
C6,Singles,1,100.00%,100.00%,34359,15662,308,212,110,9,165,2656
C6,lineage neg,1,100.00%,100.00%,34359,15662,308,212,110,9,165,2656
C6,CD34+CD38-,1,100.00%,100.00%,34359,15662,308,212,110,9,165,2656
C6,CD52+CD62L+,1,100.00%,100.00%,34359,15662,308,212,110,9,165,2656
C6,CD133+,1,100.00%,100.00%,34359,15662,308,212,110,9,165,2656
C7,All Events,1,100.00%,NaN,37528,17601,469,559,101,1,280,3700
C7,Cells,1,100.00%,100.00%,37528,17601,469,559,101,1,280,3700
C7,Singles,1,100.00%,100.00%,37528,17601,469,559,101,1,280,3700
C7,lineage neg,1,100.00%,100.00%,37528,17601,469,559,101,1,280,3700
C7,CD34+CD38-,1,100.00%,100.00%,37528,17601,469,559,101,1,280,3700
C7,CD52+CD62L+,1,100.00%,100.00%,37528,17601,469,559,101,1,280,3700
C7,CD133+,1,100.00%,100.00%,37528,17601,469,559,101,1,280,3700
C8,All Events,1,100.00%,NaN,38157,14083,156,176,103,1,58,1035
C8,Cells,1,100.00%,100.00%,38157,14083,156,176,103,1,58,1035
C8,Singles,1,100.00%,100.00%,38157,14083,156,176,103,1,58,1035
C8,lineage neg,1,100.00%,100.00%,38157,14083,156,176,103,1,58,1035
C8,CD34+CD38-,1,100.00%,100.00%,38157,14083,156,176,103,1,58,1035
C8,CD52+CD62L+,1,100.00%,100.00%,38157,14083,156,176,103,1,58,1035
C8,CD133+,1,100.00%,100.00%,38157,14083,156,176,103,1,58,1035
C9,All Events,1,100.00%,NaN,37677,19310,360,503,8,14,165,2919
C9,Cells,1,100.00%,100.00%,37677,19310,360,503,8,14,165,2919
C9,Singles,1,100.00%,100.00%,37677,19310,360,503,8,14,165,2919
C9,lineage neg,1,100.00%,100.00%,37677,19310,360,503,8,14,165,2919
C9,CD34+CD38-,1,100.00%,100.00%,37677,19310,360,503,8,14,165,2919
C9,CD52+CD62L+,1,100.00%,100.00%,37677,19310,360,503,8,14,165,2919
C9,CD133+,1,100.00%,100.00%,37677,19310,360,503,8,14,165,2919
C10,All Events,1,100.00%,NaN,33048,11557,158,223,62,1,315,1416
C10,Cells,1,100.00%,100.00%,33048,11557,158,223,62,1,315,1416
C10,Singles,1,100.00%,100.00%,33048,11557,158,223,62,1,315,1416
C10,lineage neg,1,100.00%,100.00%,33048,11557,158,223,62,1,315,1416
C10,CD34+CD38-,1,100.00%,100.00%,33048,11557,158,223,62,1,315,1416
C10,CD52+CD62L+,1,100.00%,100.00%,33048,11557,158,223,62,1,315,1416
C10,CD133+,1,100.00%,100.00%,33048,11557,158,223,62,1,315,1416
C11,All Events,1,100.00%,NaN,35494,16299,500,116,97,6,60,2114
C11,Cells,1,100.00%,100.00%,35494,16299,500,116,97,6,60,2114
C11,Singles,1,100.00%,100.00%,35494,16299,500,116,97,6,60,2114
C11,lineage neg,1,100.00%,100.00%,35494,16299,500,116,97,6,60,2114
C11,CD34+CD38-,1,100.00%,100.00%,35494,16299,500,116,97,6,60,2114
C11,CD52+CD62L+,1,100.00%,100.00%,35494,16299,500,116,97,6,60,2114
C11,CD133+,1,100.00%,100.00%,35494,16299,500,116,97,6,60,2114
C12,All Events,1,100.00%,NaN,33644,15157,171,481,27,13,83,1918
C12,Cells,1,100.00%,100.00%,33644,15157,171,481,27,13,83,1918
C12,Singles,1,100.00%,100.00%,33644,15157,171,481,27,13,83,1918
C12,lineage neg,1,100.00%,100.00%,33644,15157,171,481,27,13,83,1918
C12,CD34+CD38-,1,100.00%,100.00%,33644,15157,171,481,27,13,83,1918
C12,CD52+CD62L+,1,100.00%,100.00%,33644,15157,171,481,27,13,83,1918
C12,CD133+,1,100.00%,100.00%,33644,15157,171,481,27,13,83,1918
D1,All Events,1,100.00%,NaN,41111,16437,345,456,7,7,52,2714
D1,Cells,1,100.00%,100.00%,41111,16437,345,456,7,7,52,2714
D1,Singles,1,100.00%,100.00%,41111,16437,345,456,7,7,52,2714
D1,lineage neg,1,100.00%,100.00%,41111,16437,345,456,7,7,52,2714
D1,CD34+CD38-,1,100.00%,100.00%,41111,16437,345,456,7,7,52,2714
D1,CD52+CD62L+,1,100.00%,100.00%,41111,16437,345,456,7,7,52,2714
D1,CD133+,1,100.00%,100.00%,41111,16437,345,456,7,7,52,2714
D2,All Events,1,100.00%,NaN,38362,13582,159,38,62,1,181,530
D2,Cells,1,100.00%,100.00%,38362,13582,159,38,62,1,181,530
D2,Singles,1,100.00%,100.00%,38362,13582,159,38,62,1,181,530
D2,lineage neg,1,100.00%,100.00%,38362,13582,159,38,62,1,181,530
D2,CD34+CD38-,1,100.00%,100.00%,38362,13582,159,38,62,1,181,530
D2,CD52+CD62L+,1,100.00%,100.00%,38362,13582,159,38,62,1,181,530
D2,CD133+,1,100.00%,100.00%,38362,13582,159,38,62,1,181,530
D3,All Events,1,100.00%,NaN,37033,13462,286,163,29,1,363,2290
D3,Cells,1,100.00%,100.00%,37033,13462,286,163,29,1,363,2290
D3,Singles,1,100.00%,100.00%,37033,13462,286,163,29,1,363,2290
D3,lineage neg,1,100.00%,100.00%,37033,13462,286,163,29,1,363,2290
D3,CD34+CD38-,1,100.00%,100.00%,37033,13462,286,163,29,1,363,2290
D3,CD52+CD62L+,1,100.00%,100.00%,37033,13462,286,163,29,1,363,2290
D3,CD133+,1,100.00%,100.00%,37033,13462,286,163,29,1,363,2290
D4,All Events,1,100.00%,NaN,40035,14218,323,454,49,10,131,2148
D4,Cells,1,100.00%,100.00%,40035,14218,323,454,49,10,131,2148
D4,Singles,1,100.00%,100.00%,40035,14218,323,454,49,10,131,2148
D4,lineage neg,1,100.00%,100.00%,40035,14218,323,454,49,10,131,2148
D4,CD34+CD38-,1,100.00%,100.00%,40035,14218,323,454,49,10,131,2148
D4,CD52+CD62L+,1,100.00%,100.00%,40035,14218,323,454,49,10,131,2148
D4,CD133+,1,100.00%,100.00%,40035,14218,323,454,49,10,131,2148
D5,All Events,1,100.00%,NaN,36271,16085,452,120,95,1,155,2407
D5,Cells,1,100.00%,100.00%,36271,16085,452,120,95,1,155,2407
D5,Singles,1,100.00%,100.00%,36271,16085,452,120,95,1,155,2407
D5,lineage neg,1,100.00%,100.00%,36271,16085,452,120,95,1,155,2407
D5,CD34+CD38-,1,100.00%,100.00%,36271,16085,452,120,95,1,155,2407
D5,CD52+CD62L+,1,100.00%,100.00%,36271,16085,452,120,95,1,155,2407
D5,CD133+,1,100.00%,100.00%,36271,16085,452,120,95,1,155,2407
D6,All Events,1,100.00%,NaN,31027,12531,195,156,109,1,112,1958
D6,Cells,1,100.00%,100.00%,31027,12531,195,156,109,1,112,1958
D6,Singles,1,100.00%,100.00%,31027,12531,195,156,109,1,112,1958
D6,lineage neg,1,100.00%,100.00%,31027,12531,195,156,109,1,112,1958
D6,CD34+CD38-,1,100.00%,100.00%,31027,12531,195,156,109,1,112,1958
D6,CD52+CD62L+,1,100.00%,100.00%,31027,12531,195,156,109,1,112,1958
D6,CD133+,1,100.00%,100.00%,31027,12531,195,156,109,1,112,1958
D7,All Events,1,100.00%,NaN,40904,12360,245,441,10,3,259,1343
D7,Cells,1,100.00%,100.00%,40904,12360,245,441,10,3,259,1343
D7,Singles,1,100.00%,100.00%,40904,12360,245,441,10,3,259,1343
D7,lineage neg,1,100.00%,100.00%,40904,12360,245,441,10,3,259,1343
D7,CD34+CD38-,1,100.00%,100.00%,40904,12360,245,441,10,3,259,1343
D7,CD52+CD62L+,1,100.00%,100.00%,40904,12360,245,441,10,3,259,1343
D7,CD133+,1,100.00%,100.00%,40904,12360,245,441,10,3,259,1343
D8,All Events,1,100.00%,NaN,41207,15886,290,426,25,1,236,1855
D8,Cells,1,100.00%,100.00%,41207,15886,290,426,25,1,236,1855
D8,Singles,1,100.00%,100.00%,41207,15886,290,426,25,1,236,1855
D8,lineage neg,1,100.00%,100.00%,41207,15886,290,426,25,1,236,1855
D8,CD34+CD38-,1,100.00%,100.00%,41207,15886,290,426,25,1,236,1855
D8,CD52+CD62L+,1,100.00%,100.00%,41207,15886,290,426,25,1,236,1855
D8,CD133+,1,100.00%,100.00%,41207,15886,290,426,25,1,236,1855
D9,All Events,1,100.00%,NaN,25523,15125,109,38,79,11,150,502
D9,Cells,1,100.00%,100.00%,25523,15125,109,38,79,11,150,502
D9,Singles,1,100.00%,100.00%,25523,15125,109,38,79,11,150,502
D9,lineage neg,1,100.00%,100.00%,25523,15125,109,38,79,11,150,502
D9,CD34+CD38-,1,100.00%,100.00%,25523,15125,109,38,79,11,150,502
D9,CD52+CD62L+,1,100.00%,100.00%,25523,15125,109,38,79,11,150,502
D9,CD133+,1,100.00%,100.00%,25523,15125,109,38,79,11,150,502
D10,All Events,1,100.00%,NaN,35134,16140,497,236,17,1,425,2861
D10,Cells,1,100.00%,100.00%,35134,16140,497,236,17,1,425,2861
D10,Singles,1,100.00%,100.00%,35134,16140,497,236,17,1,425,2861
D10,lineage neg,1,100.00%,100.00%,35134,16140,497,236,17,1,425,2861
D10,CD34+CD38-,1,100.00%,100.00%,35134,16140,497,236,17,1,425,2861
D10,CD52+CD62L+,1,100.00%,100.00%,35134,16140,497,236,17,1,425,2861
D10,CD133+,1,100.00%,100.00%,35134,16140,497,236,17,1,425,2861
D11,All Events,1,100.00%,NaN,39198,18495,182,45,76,11,156,720
D11,Cells,1,100.00%,100.00%,39198,18495,182,45,76,11,156,720
D11,Singles,1,100.00%,100.00%,39198,18495,182,45,76,11,156,720
D11,lineage neg,1,100.00%,100.00%,39198,18495,182,45,76,11,156,720
D11,CD34+CD38-,1,100.00%,100.00%,39198,18495,182,45,76,11,156,720
D11,CD52+CD62L+,1,100.00%,100.00%,39198,18495,182,45,76,11,156,720
D11,CD133+,1,100.00%,100.00%,39198,18495,182,45,76,11,156,720
D12,All Events,1,100.00%,NaN,34356,16412,322,292,85,9,107,1704
D12,Cells,1,100.00%,100.00%,34356,16412,322,292,85,9,107,1704
D12,Singles,1,100.00%,100.00%,34356,16412,322,292,85,9,107,1704
D12,lineage neg,1,100.00%,100.00%,34356,16412,322,292,85,9,107,1704
D12,CD34+CD38-,1,100.00%,100.00%,34356,16412,322,292,85,9,107,1704
D12,CD52+CD62L+,1,100.00%,100.00%,34356,16412,322,292,85,9,107,1704
D12,CD133+,1,100.00%,100.00%,34356,16412,322,292,85,9,107,1704
E1,All Events,1,100.00%,NaN,36290,17274,464,235,40,14,81,2939
E1,Cells,1,100.00%,100.00%,36290,17274,464,235,40,14,81,2939
E1,Singles,1,100.00%,100.00%,36290,17274,464,235,40,14,81,2939
E1,lineage neg,1,100.00%,100.00%,36290,17274,464,235,40,14,81,2939
E1,CD34+CD38-,1,100.00%,100.00%,36290,17274,464,235,40,14,81,2939
E1,CD52+CD62L+,1,100.00%,100.00%,36290,17274,464,235,40,14,81,2939
E1,CD133+,1,100.00%,100.00%,36290,17274,464,235,40,14,81,2939
E2,All Events,1,100.00%,NaN,41477,21861,131,78,113,11,157,1140
E2,Cells,1,100.00%,100.00%,41477,21861,131,78,113,11,157,1140
E2,Singles,1,100.00%,100.00%,41477,21861,131,78,113,11,157,1140
E2,lineage neg,1,100.00%,100.00%,41477,21861,131,78,113,11,157,1140
E2,CD34+CD38-,1,100.00%,100.00%,41477,21861,131,78,113,11,157,1140
E2,CD52+CD62L+,1,100.00%,100.00%,41477,21861,131,78,113,11,157,1140
E2,CD133+,1,100.00%,100.00%,41477,21861,131,78,113,11,157,1140
E3,All Events,1,100.00%,NaN,48090,19168,203,261,88,2,867,998
E3,Cells,1,100.00%,100.00%,48090,19168,203,261,88,2,867,998
E3,Singles,1,100.00%,100.00%,48090,19168,203,261,88,2,867,998
E3,lineage neg,1,100.00%,100.00%,48090,19168,203,261,88,2,867,998
E3,CD34+CD38-,1,100.00%,100.00%,48090,19168,203,261,88,2,867,998
E3,CD52+CD62L+,1,100.00%,100.00%,48090,19168,203,261,88,2,867,998
E3,CD133+,1,100.00%,100.00%,48090,19168,203,261,88,2,867,998
E4,All Events,1,100.00%,NaN,37210,15153,157,202,5,2,287,1250
E4,Cells,1,100.00%,100.00%,37210,15153,157,202,5,2,287,1250
E4,Singles,1,100.00%,100.00%,37210,15153,157,202,5,2,287,1250
E4,lineage neg,1,100.00%,100.00%,37210,15153,157,202,5,2,287,1250
E4,CD34+CD38-,1,100.00%,100.00%,37210,15153,157,202,5,2,287,1250
E4,CD52+CD62L+,1,100.00%,100.00%,37210,15153,157,202,5,2,287,1250
E4,CD133+,1,100.00%,100.00%,37210,15153,157,202,5,2,287,1250
E5,All Events,1,100.00%,NaN,38082,16469,138,35,111,13,188,781
E5,Cells,1,100.00%,100.00%,38082,16469,138,35,111,13,188,781
E5,Singles,1,100.00%,100.00%,38082,16469,138,35,111,13,188,781
E5,lineage neg,1,100.00%,100.00%,38082,16469,138,35,111,13,188,781
E5,CD34+CD38-,1,100.00%,100.00%,38082,16469,138,35,111,13,188,781
E5,CD52+CD62L+,1,100.00%,100.00%,38082,16469,138,35,111,13,188,781
E5,CD133+,1,100.00%,100.00%,38082,16469,138,35,111,13,188,781
E6,All Events,1,100.00%,NaN,41196,12254,630,367,67,10,51,2416
E6,Cells,1,100.00%,100.00%,41196,12254,630,367,67,10,51,2416
E6,Singles,1,100.00%,100.00%,41196,12254,630,367,67,10,51,2416
E6,lineage neg,1,100.00%,100.00%,41196,12254,630,367,67,10,51,2416
E6,CD34+CD38-,1,100.00%,100.00%,41196,12254,630,367,67,10,51,2416
E6,CD52+CD62L+,1,100.00%,100.00%,41196,12254,630,367,67,10,51,2416
E6,CD133+,1,100.00%,100.00%,41196,12254,630,367,67,10,51,2416
E7,All Events,1,100.00%,NaN,43874,18337,312,295,49,3,199,2841
E7,Cells,1,100.00%,100.00%,43874,18337,312,295,49,3,199,2841
E7,Singles,1,100.00%,100.00%,43874,18337,312,295,49,3,199,2841
E7,lineage neg,1,100.00%,100.00%,43874,18337,312,295,49,3,199,2841
E7,CD34+CD38-,1,100.00%,100.00%,43874,18337,312,295,49,3,199,2841
E7,CD52+CD62L+,1,100.00%,100.00%,43874,18337,312,295,49,3,199,2841
E7,CD133+,1,100.00%,100.00%,43874,18337,312,295,49,3,199,2841
E8,All Events,1,100.00%,NaN,34102,19095,232,218,63,1,52,1411
E8,Cells,1,100.00%,100.00%,34102,19095,232,218,63,1,52,1411
E8,Singles,1,100.00%,100.00%,34102,19095,232,218,63,1,52,1411
E8,lineage neg,1,100.00%,100.00%,34102,19095,232,218,63,1,52,1411
E8,CD34+CD38-,1,100.00%,100.00%,34102,19095,232,218,63,1,52,1411
E8,CD52+CD62L+,1,100.00%,100.00%,34102,19095,232,218,63,1,52,1411
E8,CD133+,1,100.00%,100.00%,34102,19095,232,218,63,1,52,1411
E9,All Events,1,100.00%,NaN,44242,17256,209,261,63,1,58,1377
E9,Cells,1,100.00%,100.00%,44242,17256,209,261,63,1,58,1377
E9,Singles,1,100.00%,100.00%,44242,17256,209,261,63,1,58,1377
E9,lineage neg,1,100.00%,100.00%,44242,17256,209,261,63,1,58,1377
E9,CD34+CD38-,1,100.00%,100.00%,44242,17256,209,261,63,1,58,1377
E9,CD52+CD62L+,1,100.00%,100.00%,44242,17256,209,261,63,1,58,1377
E9,CD133+,1,100.00%,100.00%,44242,17256,209,261,63,1,58,1377
E10,All Events,1,100.00%,NaN,37573,15938,224,95,101,12,178,698
E10,Cells,1,100.00%,100.00%,37573,15938,224,95,101,12,178,698
E10,Singles,1,100.00%,100.00%,37573,15938,224,95,101,12,178,698
E10,lineage neg,1,100.00%,100.00%,37573,15938,224,95,101,12,178,698
E10,CD34+CD38-,1,100.00%,100.00%,37573,15938,224,95,101,12,178,698
E10,CD52+CD62L+,1,100.00%,100.00%,37573,15938,224,95,101,12,178,698
E10,CD133+,1,100.00%,100.00%,37573,15938,224,95,101,12,178,698
E11,All Events,1,100.00%,NaN,28049,11453,343,245,58,13,671,2285
E11,Cells,1,100.00%,100.00%,28049,11453,343,245,58,13,671,2285
E11,Singles,1,100.00%,100.00%,28049,11453,343,245,58,13,671,2285
E11,lineage neg,1,100.00%,100.00%,28049,11453,343,245,58,13,671,2285
E11,CD34+CD38-,1,100.00%,100.00%,28049,11453,343,245,58,13,671,2285
E11,CD52+CD62L+,1,100.00%,100.00%,28049,11453,343,245,58,13,671,2285
E11,CD133+,1,100.00%,100.00%,28049,11453,343,245,58,13,671,2285
E12,All Events,1,100.00%,NaN,34211,16494,300,81,25,9,399,1008
E12,Cells,1,100.00%,100.00%,34211,16494,300,81,25,9,399,1008
E12,Singles,1,100.00%,100.00%,34211,16494,300,81,25,9,399,1008
E12,lineage neg,1,100.00%,100.00%,34211,16494,300,81,25,9,399,1008
E12,CD34+CD38-,1,100.00%,100.00%,34211,16494,300,81,25,9,399,1008
E12,CD52+CD62L+,1,100.00%,100.00%,34211,16494,300,81,25,9,399,1008
E12,CD133+,1,100.00%,100.00%,34211,16494,300,81,25,9,399,1008
F1,All Events,1,100.00%,NaN,37438,17105,560,493,76,1,172,2358
F1,Cells,1,100.00%,100.00%,37438,17105,560,493,76,1,172,2358
F1,Singles,1,100.00%,100.00%,37438,17105,560,493,76,1,172,2358
F1,lineage neg,1,100.00%,100.00%,37438,17105,560,493,76,1,172,2358
F1,CD34+CD38-,1,100.00%,100.00%,37438,17105,560,493,76,1,172,2358
F1,CD52+CD62L+,1,100.00%,100.00%,37438,17105,560,493,76,1,172,2358
F1,CD133+,1,100.00%,100.00%,37438,17105,560,493,76,1,172,2358
F2,All Events,1,100.00%,NaN,37892,17212,124,165,103,1,153,1743
F2,Cells,1,100.00%,100.00%,37892,17212,124,165,103,1,153,1743
F2,Singles,1,100.00%,100.00%,37892,17212,124,165,103,1,153,1743
F2,lineage neg,1,100.00%,100.00%,37892,17212,124,165,103,1,153,1743
F2,CD34+CD38-,1,100.00%,100.00%,37892,17212,124,165,103,1,153,1743
F2,CD52+CD62L+,1,100.00%,100.00%,37892,17212,124,165,103,1,153,1743
F2,CD133+,1,100.00%,100.00%,37892,17212,124,165,103,1,153,1743
F3,All Events,1,100.00%,NaN,36311,15034,257,408,7,5,53,1792
F3,Cells,1,100.00%,100.00%,36311,15034,257,408,7,5,53,1792
F3,Singles,1,100.00%,100.00%,36311,15034,257,408,7,5,53,1792
F3,lineage neg,1,100.00%,100.00%,36311,15034,257,408,7,5,53,1792
F3,CD34+CD38-,1,100.00%,100.00%,36311,15034,257,408,7,5,53,1792
F3,CD52+CD62L+,1,100.00%,100.00%,36311,15034,257,408,7,5,53,1792
F3,CD133+,1,100.00%,100.00%,36311,15034,257,408,7,5,53,1792
F4,All Events,1,100.00%,NaN,40038,18178,371,181,56,1,310,1626
F4,Cells,1,100.00%,100.00%,40038,18178,371,181,56,1,310,1626
F4,Singles,1,100.00%,100.00%,40038,18178,371,181,56,1,310,1626
F4,lineage neg,1,100.00%,100.00%,40038,18178,371,181,56,1,310,1626
F4,CD34+CD38-,1,100.00%,100.00%,40038,18178,371,181,56,1,310,1626
F4,CD52+CD62L+,1,100.00%,100.00%,40038,18178,371,181,56,1,310,1626
F4,CD133+,1,100.00%,100.00%,40038,18178,371,181,56,1,310,1626
F5,All Events,1,100.00%,NaN,39654,14836,558,415,53,1,69,4277
F5,Cells,1,100.00%,100.00%,39654,14836,558,415,53,1,69,4277
F5,Singles,1,100.00%,100.00%,39654,14836,558,415,53,1,69,4277
F5,lineage neg,1,100.00%,100.00%,39654,14836,558,415,53,1,69,4277
F5,CD34+CD38-,1,100.00%,100.00%,39654,14836,558,415,53,1,69,4277
F5,CD52+CD62L+,1,100.00%,100.00%,39654,14836,558,415,53,1,69,4277
F5,CD133+,1,100.00%,100.00%,39654,14836,558,415,53,1,69,4277
F6,All Events,1,100.00%,NaN,32658,14605,249,114,104,11,212,1233
F6,Cells,1,100.00%,100.00%,32658,14605,249,114,104,11,212,1233
F6,Singles,1,100.00%,100.00%,32658,14605,249,114,104,11,212,1233
F6,lineage neg,1,100.00%,100.00%,32658,14605,249,114,104,11,212,1233
F6,CD34+CD38-,1,100.00%,100.00%,32658,14605,249,114,104,11,212,1233
F6,CD52+CD62L+,1,100.00%,100.00%,32658,14605,249,114,104,11,212,1233
F6,CD133+,1,100.00%,100.00%,32658,14605,249,114,104,11,212,1233
F7,All Events,1,100.00%,NaN,35694,15977,171,119,56,9,112,1465
F7,Cells,1,100.00%,100.00%,35694,15977,171,119,56,9,112,1465
F7,Singles,1,100.00%,100.00%,35694,15977,171,119,56,9,112,1465
F7,lineage neg,1,100.00%,100.00%,35694,15977,171,119,56,9,112,1465
F7,CD34+CD38-,1,100.00%,100.00%,35694,15977,171,119,56,9,112,1465
F7,CD52+CD62L+,1,100.00%,100.00%,35694,15977,171,119,56,9,112,1465
F7,CD133+,1,100.00%,100.00%,35694,15977,171,119,56,9,112,1465
F8,All Events,1,100.00%,NaN,39378,16895,363,226,114,1,84,1845
F8,Cells,1,100.00%,100.00%,39378,16895,363,226,114,1,84,1845
F8,Singles,1,100.00%,100.00%,39378,16895,363,226,114,1,84,1845
F8,lineage neg,1,100.00%,100.00%,39378,16895,363,226,114,1,84,1845
F8,CD34+CD38-,1,100.00%,100.00%,39378,16895,363,226,114,1,84,1845
F8,CD52+CD62L+,1,100.00%,100.00%,39378,16895,363,226,114,1,84,1845
F8,CD133+,1,100.00%,100.00%,39378,16895,363,226,114,1,84,1845
F9,All Events,1,100.00%,NaN,31043,14257,330,233,104,1,178,1450
F9,Cells,1,100.00%,100.00%,31043,14257,330,233,104,1,178,1450
F9,Singles,1,100.00%,100.00%,31043,14257,330,233,104,1,178,1450
F9,lineage neg,1,100.00%,100.00%,31043,14257,330,233,104,1,178,1450
F9,CD34+CD38-,1,100.00%,100.00%,31043,14257,330,233,104,1,178,1450
F9,CD52+CD62L+,1,100.00%,100.00%,31043,14257,330,233,104,1,178,1450
F9,CD133+,1,100.00%,100.00%,31043,14257,330,233,104,1,178,1450
F10,All Events,1,100.00%,NaN,35428,15384,258,632,7,1,62,2104
F10,Cells,1,100.00%,100.00%,35428,15384,258,632,7,1,62,2104
F10,Singles,1,100.00%,100.00%,35428,15384,258,632,7,1,62,2104
F10,lineage neg,1,100.00%,100.00%,35428,15384,258,632,7,1,62,2104
F10,CD34+CD38-,1,100.00%,100.00%,35428,15384,258,632,7,1,62,2104
F10,CD52+CD62L+,1,100.00%,100.00%,35428,15384,258,632,7,1,62,2104
F10,CD133+,1,100.00%,100.00%,35428,15384,258,632,7,1,62,2104
F11,All Events,1,100.00%,NaN,38179,17453,494,158,107,15,59,2783
F11,Cells,1,100.00%,100.00%,38179,17453,494,158,107,15,59,2783
F11,Singles,1,100.00%,100.00%,38179,17453,494,158,107,15,59,2783
F11,lineage neg,1,100.00%,100.00%,38179,17453,494,158,107,15,59,2783
F11,CD34+CD38-,1,100.00%,100.00%,38179,17453,494,158,107,15,59,2783
F11,CD52+CD62L+,1,100.00%,100.00%,38179,17453,494,158,107,15,59,2783
F11,CD133+,1,100.00%,100.00%,38179,17453,494,158,107,15,59,2783
F12,All Events,1,100.00%,NaN,39137,12904,159,280,26,6,151,1450
F12,Cells,1,100.00%,100.00%,39137,12904,159,280,26,6,151,1450
F12,Singles,1,100.00%,100.00%,39137,12904,159,280,26,6,151,1450
F12,lineage neg,1,100.00%,100.00%,39137,12904,159,280,26,6,151,1450
F12,CD34+CD38-,1,100.00%,100.00%,39137,12904,159,280,26,6,151,1450
F12,CD52+CD62L+,1,100.00%,100.00%,39137,12904,159,280,26,6,151,1450
F12,CD133+,1,100.00%,100.00%,39137,12904,159,280,26,6,151,1450
G1,All Events,1,100.00%,NaN,28870,14436,475,637,114,12,86,2519
G1,Cells,1,100.00%,100.00%,28870,14436,475,637,114,12,86,2519
G1,Singles,1,100.00%,100.00%,28870,14436,475,637,114,12,86,2519
G1,lineage neg,1,100.00%,100.00%,28870,14436,475,637,114,12,86,2519
G1,CD34+CD38-,1,100.00%,100.00%,28870,14436,475,637,114,12,86,2519
G1,CD52+CD62L+,1,100.00%,100.00%,28870,14436,475,637,114,12,86,2519
G1,CD133+,1,100.00%,100.00%,28870,14436,475,637,114,12,86,2519
G2,All Events,1,100.00%,NaN,36914,11452,146,115,116,4,537,571
G2,Cells,1,100.00%,100.00%,36914,11452,146,115,116,4,537,571
G2,Singles,1,100.00%,100.00%,36914,11452,146,115,116,4,537,571
G2,lineage neg,1,100.00%,100.00%,36914,11452,146,115,116,4,537,571
G2,CD34+CD38-,1,100.00%,100.00%,36914,11452,146,115,116,4,537,571
G2,CD52+CD62L+,1,100.00%,100.00%,36914,11452,146,115,116,4,537,571
G2,CD133+,1,100.00%,100.00%,36914,11452,146,115,116,4,537,571
G3,All Events,1,100.00%,NaN,36247,13233,476,552,41,1,619,2646
G3,Cells,1,100.00%,100.00%,36247,13233,476,552,41,1,619,2646
G3,Singles,1,100.00%,100.00%,36247,13233,476,552,41,1,619,2646
G3,lineage neg,1,100.00%,100.00%,36247,13233,476,552,41,1,619,2646
G3,CD34+CD38-,1,100.00%,100.00%,36247,13233,476,552,41,1,619,2646
G3,CD52+CD62L+,1,100.00%,100.00%,36247,13233,476,552,41,1,619,2646
G3,CD133+,1,100.00%,100.00%,36247,13233,476,552,41,1,619,2646
G4,All Events,1,100.00%,NaN,36218,14895,149,221,81,1,754,1072
G4,Cells,1,100.00%,100.00%,36218,14895,149,221,81,1,754,1072
G4,Singles,1,100.00%,100.00%,36218,14895,149,221,81,1,754,1072
G4,lineage neg,1,100.00%,100.00%,36218,14895,149,221,81,1,754,1072
G4,CD34+CD38-,1,100.00%,100.00%,36218,14895,149,221,81,1,754,1072
G4,CD52+CD62L+,1,100.00%,100.00%,36218,14895,149,221,81,1,754,1072
G4,CD133+,1,100.00%,100.00%,36218,14895,149,221,81,1,754,1072
G5,All Events,1,100.00%,NaN,38675,17545,145,164,85,5,262,732
G5,Cells,1,100.00%,100.00%,38675,17545,145,164,85,5,262,732
G5,Singles,1,100.00%,100.00%,38675,17545,145,164,85,5,262,732
G5,lineage neg,1,100.00%,100.00%,38675,17545,145,164,85,5,262,732
G5,CD34+CD38-,1,100.00%,100.00%,38675,17545,145,164,85,5,262,732
G5,CD52+CD62L+,1,100.00%,100.00%,38675,17545,145,164,85,5,262,732
G5,CD133+,1,100.00%,100.00%,38675,17545,145,164,85,5,262,732
G6,All Events,1,100.00%,NaN,35119,13127,108,157,85,2,533,553
G6,Cells,1,100.00%,100.00%,35119,13127,108,157,85,2,533,553
G6,Singles,1,100.00%,100.00%,35119,13127,108,157,85,2,533,553
G6,lineage neg,1,100.00%,100.00%,35119,13127,108,157,85,2,533,553
G6,CD34+CD38-,1,100.00%,100.00%,35119,13127,108,157,85,2,533,553
G6,CD52+CD62L+,1,100.00%,100.00%,35119,13127,108,157,85,2,533,553
G6,CD133+,1,100.00%,100.00%,35119,13127,108,157,85,2,533,553
G7,All Events,1,100.00%,NaN,42736,18187,320,336,56,1,111,2578
G7,Cells,1,100.00%,100.00%,42736,18187,320,336,56,1,111,2578
G7,Singles,1,100.00%,100.00%,42736,18187,320,336,56,1,111,2578
G7,lineage neg,1,100.00%,100.00%,42736,18187,320,336,56,1,111,2578
G7,CD34+CD38-,1,100.00%,100.00%,42736,18187,320,336,56,1,111,2578
G7,CD52+CD62L+,1,100.00%,100.00%,42736,18187,320,336,56,1,111,2578
G7,CD133+,1,100.00%,100.00%,42736,18187,320,336,56,1,111,2578
G8,All Events,1,100.00%,NaN,38962,13314,261,128,81,10,90,1577
G8,Cells,1,100.00%,100.00%,38962,13314,261,128,81,10,90,1577
G8,Singles,1,100.00%,100.00%,38962,13314,261,128,81,10,90,1577
G8,lineage neg,1,100.00%,100.00%,38962,13314,261,128,81,10,90,1577
G8,CD34+CD38-,1,100.00%,100.00%,38962,13314,261,128,81,10,90,1577
G8,CD52+CD62L+,1,100.00%,100.00%,38962,13314,261,128,81,10,90,1577
G8,CD133+,1,100.00%,100.00%,38962,13314,261,128,81,10,90,1577
G9,All Events,1,100.00%,NaN,36224,17276,383,437,55,1,607,2329
G9,Cells,1,100.00%,100.00%,36224,17276,383,437,55,1,607,2329
G9,Singles,1,100.00%,100.00%,36224,17276,383,437,55,1,607,2329
G9,lineage neg,1,100.00%,100.00%,36224,17276,383,437,55,1,607,2329
G9,CD34+CD38-,1,100.00%,100.00%,36224,17276,383,437,55,1,607,2329
G9,CD52+CD62L+,1,100.00%,100.00%,36224,17276,383,437,55,1,607,2329
G9,CD133+,1,100.00%,100.00%,36224,17276,383,437,55,1,607,2329
G10,All Events,1,100.00%,NaN,33425,15948,364,272,52,1,353,1909
G10,Cells,1,100.00%,100.00%,33425,15948,364,272,52,1,353,1909
G10,Singles,1,100.00%,100.00%,33425,15948,364,272,52,1,353,1909
G10,lineage neg,1,100.00%,100.00%,33425,15948,364,272,52,1,353,1909
G10,CD34+CD38-,1,100.00%,100.00%,33425,15948,364,272,52,1,353,1909
G10,CD52+CD62L+,1,100.00%,100.00%,33425,15948,364,272,52,1,353,1909
G10,CD133+,1,100.00%,100.00%,33425,15948,364,272,52,1,353,1909
G11,All Events,1,100.00%,NaN,33270,11384,221,233,115,2,406,1460
G11,Cells,1,100.00%,100.00%,33270,11384,221,233,115,2,406,1460
G11,Singles,1,100.00%,100.00%,33270,11384,221,233,115,2,406,1460
G11,lineage neg,1,100.00%,100.00%,33270,11384,221,233,115,2,406,1460
G11,CD34+CD38-,1,100.00%,100.00%,33270,11384,221,233,115,2,406,1460
G11,CD52+CD62L+,1,100.00%,100.00%,33270,11384,221,233,115,2,406,1460
G11,CD133+,1,100.00%,100.00%,33270,11384,221,233,115,2,406,1460
G12,All Events,1,100.00%,NaN,42215,20373,134,40,101,2,446,957
G12,Cells,1,100.00%,100.00%,42215,20373,134,40,101,2,446,957
G12,Singles,1,100.00%,100.00%,42215,20373,134,40,101,2,446,957
G12,lineage neg,1,100.00%,100.00%,42215,20373,134,40,101,2,446,957
G12,CD34+CD38-,1,100.00%,100.00%,42215,20373,134,40,101,2,446,957
G12,CD52+CD62L+,1,100.00%,100.00%,42215,20373,134,40,101,2,446,957
G12,CD133+,1,100.00%,100.00%,42215,20373,134,40,101,2,446,957
H1,All Events,1,100.00%,NaN,36641,15789,476,149,72,15,608,2773
H1,Cells,1,100.00%,100.00%,36641,15789,476,149,72,15,608,2773
H1,Singles,1,100.00%,100.00%,36641,15789,476,149,72,15,608,2773
H1,lineage neg,1,100.00%,100.00%,36641,15789,476,149,72,15,608,2773
H1,CD34+CD38-,1,100.00%,100.00%,36641,15789,476,149,72,15,608,2773
H1,CD52+CD62L+,1,100.00%,100.00%,36641,15789,476,149,72,15,608,2773
H1,CD133+,1,100.00%,100.00%,36641,15789,476,149,72,15,608,2773
H2,All Events,1,100.00%,NaN,38818,21979,182,98,112,12,105,1199
H2,Cells,1,100.00%,100.00%,38818,21979,182,98,112,12,105,1199
H2,Singles,1,100.00%,100.00%,38818,21979,182,98,112,12,105,1199
H2,lineage neg,1,100.00%,100.00%,38818,21979,182,98,112,12,105,1199
H2,CD34+CD38-,1,100.00%,100.00%,38818,21979,182,98,112,12,105,1199
H2,CD52+CD62L+,1,100.00%,100.00%,38818,21979,182,98,112,12,105,1199
H2,CD133+,1,100.00%,100.00%,38818,21979,182,98,112,12,105,1199
H3,All Events,1,100.00%,NaN,31544,14786,455,283,29,1,92,2753
H3,Cells,1,100.00%,100.00%,31544,14786,455,283,29,1,92,2753
H3,Singles,1,100.00%,100.00%,31544,14786,455,283,29,1,92,2753
H3,lineage neg,1,100.00%,100.00%,31544,14786,455,283,29,1,92,2753
H3,CD34+CD38-,1,100.00%,100.00%,31544,14786,455,283,29,1,92,2753
H3,CD52+CD62L+,1,100.00%,100.00%,31544,14786,455,283,29,1,92,2753
H3,CD133+,1,100.00%,100.00%,31544,14786,455,283,29,1,92,2753
H4,All Events,1,100.00%,NaN,39542,14170,274,67,64,12,548,774
H4,Cells,1,100.00%,100.00%,39542,14170,274,67,64,12,548,774
H4,Singles,1,100.00%,100.00%,39542,14170,274,67,64,12,548,774
H4,lineage neg,1,100.00%,100.00%,39542,14170,274,67,64,12,548,774
H4,CD34+CD38-,1,100.00%,100.00%,39542,14170,274,67,64,12,548,774
H4,CD52+CD62L+,1,100.00%,100.00%,39542,14170,274,67,64,12,548,774
H4,CD133+,1,100.00%,100.00%,39542,14170,274,67,64,12,548,774
H5,All Events,1,100.00%,NaN,35498,17459,119,70,61,1,984,693
H5,Cells,1,100.00%,100.00%,35498,17459,119,70,61,1,984,693
H5,Singles,1,100.00%,100.00%,35498,17459,119,70,61,1,984,693
H5,lineage neg,1,100.00%,100.00%,35498,17459,119,70,61,1,984,693
H5,CD34+CD38-,1,100.00%,100.00%,35498,17459,119,70,61,1,984,693
H5,CD52+CD62L+,1,100.00%,100.00%,35498,17459,119,70,61,1,984,693
H5,CD133+,1,100.00%,100.00%,35498,17459,119,70,61,1,984,693
H6,All Events,1,100.00%,NaN,39087,12776,395,596,49,8,155,2568
H6,Cells,1,100.00%,100.00%,39087,12776,395,596,49,8,155,2568
H6,Singles,1,100.00%,100.00%,39087,12776,395,596,49,8,155,2568
H6,lineage neg,1,100.00%,100.00%,39087,12776,395,596,49,8,155,2568
H6,CD34+CD38-,1,100.00%,100.00%,39087,12776,395,596,49,8,155,2568
H6,CD52+CD62L+,1,100.00%,100.00%,39087,12776,395,596,49,8,155,2568
H6,CD133+,1,100.00%,100.00%,39087,12776,395,596,49,8,155,2568
H7,All Events,1,100.00%,NaN,34587,13026,277,128,72,1,54,1081
H7,Cells,1,100.00%,100.00%,34587,13026,277,128,72,1,54,1081
H7,Singles,1,100.00%,100.00%,34587,13026,277,128,72,1,54,1081
H7,lineage neg,1,100.00%,100.00%,34587,13026,277,128,72,1,54,1081
H7,CD34+CD38-,1,100.00%,100.00%,34587,13026,277,128,72,1,54,1081
H7,CD52+CD62L+,1,100.00%,100.00%,34587,13026,277,128,72,1,54,1081
H7,CD133+,1,100.00%,100.00%,34587,13026,277,128,72,1,54,1081
H8,All Events,1,100.00%,NaN,40640,13433,110,123,106,16,469,510
H8,Cells,1,100.00%,100.00%,40640,13433,110,123,106,16,469,510
H8,Singles,1,100.00%,100.00%,40640,13433,110,123,106,16,469,510
H8,lineage neg,1,100.00%,100.00%,40640,13433,110,123,106,16,469,510
H8,CD34+CD38-,1,100.00%,100.00%,40640,13433,110,123,106,16,469,510
H8,CD52+CD62L+,1,100.00%,100.00%,40640,13433,110,123,106,16,469,510
H8,CD133+,1,100.00%,100.00%,40640,13433,110,123,106,16,469,510
H9,All Events,1,100.00%,NaN,38945,11870,165,274,19,14,187,818
H9,Cells,1,100.00%,100.00%,38945,11870,165,274,19,14,187,818
H9,Singles,1,100.00%,100.00%,38945,11870,165,274,19,14,187,818
H9,lineage neg,1,100.00%,100.00%,38945,11870,165,274,19,14,187,818
H9,CD34+CD38-,1,100.00%,100.00%,38945,11870,165,274,19,14,187,818
H9,CD52+CD62L+,1,100.00%,100.00%,38945,11870,165,274,19,14,187,818
H9,CD133+,1,100.00%,100.00%,38945,11870,165,274,19,14,187,818
H10,All Events,1,100.00%,NaN,32370,15092,332,604,34,11,225,3124
H10,Cells,1,100.00%,100.00%,32370,15092,332,604,34,11,225,3124
H10,Singles,1,100.00%,100.00%,32370,15092,332,604,34,11,225,3124
H10,lineage neg,1,100.00%,100.00%,32370,15092,332,604,34,11,225,3124
H10,CD34+CD38-,1,100.00%,100.00%,32370,15092,332,604,34,11,225,3124
H10,CD52+CD62L+,1,100.00%,100.00%,32370,15092,332,604,34,11,225,3124
H10,CD133+,1,100.00%,100.00%,32370,15092,332,604,34,11,225,3124
H11,All Events,0,NaN,NaN,NaN,NaN,NaN,NaN,NaN,NaN,NaN,NaN
H11,Cells,0,NaN,NaN,NaN,NaN,NaN,NaN,NaN,NaN,NaN,NaN
H11,Singles,0,NaN,NaN,NaN,NaN,NaN,NaN,NaN,NaN,NaN,NaN
H11,lineage neg,0,NaN,NaN,NaN,NaN,NaN,NaN,NaN,NaN,NaN,NaN
H11,CD34+CD38-,0,NaN,NaN,NaN,NaN,NaN,NaN,NaN,NaN,NaN,NaN
H11,CD52+CD62L+,0,NaN,NaN,NaN,NaN,NaN,NaN,NaN,NaN,NaN,NaN
H11,CD133+,0,NaN,NaN,NaN,NaN,NaN,NaN,NaN,NaN,NaN,NaN
H12,All Events,0,NaN,NaN,NaN,NaN,NaN,NaN,NaN,NaN,NaN,NaN
H12,Cells,0,NaN,NaN,NaN,NaN,NaN,NaN,NaN,NaN,NaN,NaN
H12,Singles,0,NaN,NaN,NaN,NaN,NaN,NaN,NaN,NaN,NaN,NaN
H12,lineage neg,0,NaN,NaN,NaN,NaN,NaN,NaN,NaN,NaN,NaN,NaN
H12,CD34+CD38-,0,NaN,NaN,NaN,NaN,NaN,NaN,NaN,NaN,NaN,NaN
H12,CD52+CD62L+,0,NaN,NaN,NaN,NaN,NaN,NaN,NaN,NaN,NaN,NaN
H12,CD133+,0,NaN,NaN,NaN,NaN,NaN,NaN,NaN,NaN,NaN,NaN
